superevent_id,external_id,t_0,ext_search,gw_skymap,ext_skymap,gw_far,grb_far,grb_not_real,temporal_coinc_far,spatiotemporal_coinc_far,overlap_integral,previously_found,passes_threshold
S12011,E5,129306924.88204613,GRB,ligo/raven/tests/data/injection_study/gw/647238/bayestar.fits.gz,ligo/raven/tests/data/injection_study/grb/glg_healpix_all_bn180703949_v00.fit,2.5297481969281358e-05,nan,False,1.641255964902006e-07,0.01518920350609244,1.080541164810711e-05,False,False
S4659,E11,28525112.431237604,GRB,ligo/raven/tests/data/injection_study/gw/547501/bayestar.fits.gz,ligo/raven/tests/data/injection_study/grb/glg_healpix_all_bn180130049_v00.fit,0.00023484873683915063,nan,False,1.5236571396908367e-06,0.0006560858796516636,0.002322344051208347,False,False
S10237,E28,146261484.16719484,GRB,ligo/raven/tests/data/injection_study/gw/303684/bayestar.fits.gz,ligo/raven/tests/data/injection_study/grb/glg_healpix_all_bn180805543_v00.fit,7.596994027934771e-06,nan,False,4.928795592705017e-08,1.4592773428081458e-07,0.3377559185028076,False,False
S6576,E30,82398446.69374132,GRB,ligo/raven/tests/data/injection_study/gw/494115/bayestar.fits.gz,ligo/raven/tests/data/injection_study/grb/glg_healpix_all_bn181026540_v00.fit,0.00022144503498804788,nan,False,1.4366962886401128e-06,0.006359123509404278,0.00022592677851207554,False,False
S5691,E32,120907815.8112365,GRB,ligo/raven/tests/data/injection_study/gw/533209/bayestar.fits.gz,ligo/raven/tests/data/injection_study/grb/glg_healpix_all_bn190411407_v00.fit,0.00027014946596855846,nan,False,1.752682037581401e-06,0.0002903796501076336,0.0060358294285833836,False,False
S12153,E39,41580957.01669561,GRB,ligo/raven/tests/data/injection_study/gw/529406/bayestar.fits.gz,ligo/raven/tests/data/injection_study/grb/glg_healpix_all_bn180130049_v00.fit,0.00018164890272508142,nan,False,1.1785060089279445e-06,3.18035180155698e-05,0.03705583792179823,False,False
S37948,E44,20339021.2893645,GRB,ligo/raven/tests/data/injection_study/gw/630936/bayestar.fits.gz,ligo/raven/tests/data/injection_study/grb/glg_healpix_all_bn190519309_v00.fit,0.0002469513374317601,nan,False,1.6021766754990524e-06,0.2663667164910449,6.014928203512682e-06,False,False
S4128,E46,34903641.64942698,GRB,ligo/raven/tests/data/injection_study/gw/522890/bayestar.fits.gz,ligo/raven/tests/data/injection_study/grb/glg_healpix_all_bn181208188_v00.fit,2.648590857241525e-05,nan,False,1.7183589846258751e-07,0.17148211841651786,1.0020630725193769e-06,False,False
S13876,E48,131487392.77059747,GRB,ligo/raven/tests/data/injection_study/gw/591966/bayestar.fits.gz,ligo/raven/tests/data/injection_study/grb/glg_healpix_all_bn180127049_v00.fit,0.00024681335738277476,nan,False,1.6012814853030098e-06,0.003116369604858821,0.0005138291307957843,False,False
S41300,E49,43439323.307546,GRB,ligo/raven/tests/data/injection_study/gw/529406/bayestar.fits.gz,ligo/raven/tests/data/injection_study/grb/glg_healpix_all_bn180112842_v00.fit,7.043777014960975e-05,nan,False,4.569878162293936e-07,1.9600779804896802,2.3314777308769408e-07,False,False
S37416,E59,90060876.72826903,GRB,ligo/raven/tests/data/injection_study/gw/493717/bayestar.fits.gz,ligo/raven/tests/data/injection_study/grb/glg_healpix_all_bn181010247_v00.fit,0.00017069555154028266,nan,False,1.107442600365989e-06,9.375273093762743e-06,0.11812376976013184,False,False
S12141,E64,50932249.607854,GRB,ligo/raven/tests/data/injection_study/gw/754550/bayestar.fits.gz,ligo/raven/tests/data/injection_study/grb/glg_healpix_all_bn180828790_v00.fit,1.0321804642452531e-05,nan,False,6.696604610114751e-08,0.012887124226313917,5.196352958591888e-06,False,False
S14010,E74,70810978.82069199,GRB,ligo/raven/tests/data/injection_study/gw/546168/bayestar.fits.gz,ligo/raven/tests/data/injection_study/grb/glg_healpix_all_bn190531840_v00.fit,0.0001561103885162538,nan,False,1.0128166378242494e-06,0.07719429270790884,1.3120356470608385e-05,False,False
S20347,E86,33560094.429404244,GRB,ligo/raven/tests/data/injection_study/gw/469650/bayestar.fits.gz,ligo/raven/tests/data/injection_study/grb/glg_healpix_all_bn180201780_v00.fit,0.00019111490218351554,nan,False,1.2399197420962482e-06,4.350839957310857e-06,0.2849839925765991,False,False
S13506,E87,148651521.04048705,GRB,ligo/raven/tests/data/injection_study/gw/547116/bayestar.fits.gz,ligo/raven/tests/data/injection_study/grb/glg_healpix_all_bn181120265_v00.fit,0.00010929980420247328,nan,False,7.091178316789077e-07,0.00030327059073588297,0.0023382347426377237,False,False
S614,E96,24877125.172796614,GRB,ligo/raven/tests/data/injection_study/gw/673854/bayestar.fits.gz,ligo/raven/tests/data/injection_study/grb/glg_healpix_all_bn190422284_v00.fit,0.0002335658684689163,nan,False,1.515334116208152e-06,0.00018630966055750353,0.008133416762575507,False,False
S4541,E96,24877552.25577692,GRB,ligo/raven/tests/data/injection_study/gw/791321/bayestar.fits.gz,ligo/raven/tests/data/injection_study/grb/glg_healpix_all_bn190422284_v00.fit,0.0001552676249528885,nan,False,1.0073489366235727e-06,4.0172474229581464e-06,0.25075601041316986,False,False
S19302,E105,106042953.51000196,GRB,ligo/raven/tests/data/injection_study/gw/644826/bayestar.fits.gz,ligo/raven/tests/data/injection_study/grb/glg_healpix_all_bn180906759_v00.fit,0.00010837077892205859,nan,False,7.030904796883938e-07,3.8673507280297956,1.818015817889318e-07,False,False
S14249,E106,85417363.03695467,GRB,ligo/raven/tests/data/injection_study/gw/680977/bayestar.fits.gz,ligo/raven/tests/data/injection_study/grb/glg_healpix_all_bn180211754_v00.fit,0.00014442112070695866,nan,False,9.369787321360903e-07,9.017630099319494e-08,10.390520811080933,False,False
S17516,E112,145856241.68289715,GRB,ligo/raven/tests/data/injection_study/gw/498200/bayestar.fits.gz,ligo/raven/tests/data/injection_study/grb/glg_healpix_all_bn190220844_v00.fit,0.00010201186284118581,nan,False,6.618349548866888e-07,0.00035075474228076864,0.001886888116132468,False,False
S16116,E121,96625145.23535281,GRB,ligo/raven/tests/data/injection_study/gw/675689/bayestar.fits.gz,ligo/raven/tests/data/injection_study/grb/glg_healpix_all_bn190531840_v00.fit,0.0002287322738795587,nan,False,1.483974607932449e-06,0.2304416487816607,6.439697926907684e-06,False,False
S17132,E124,93433853.15129328,GRB,ligo/raven/tests/data/injection_study/gw/875407/bayestar.fits.gz,ligo/raven/tests/data/injection_study/grb/glg_healpix_all_bn181120265_v00.fit,0.0001815671405374614,nan,False,1.1779755502906077e-06,0.0746701289163246,1.5775726751598995e-05,False,False
S331,E126,24247026.734613348,GRB,ligo/raven/tests/data/injection_study/gw/708629/bayestar.fits.gz,ligo/raven/tests/data/injection_study/grb/glg_healpix_all_bn180201780_v00.fit,0.00012443775949276715,nan,False,8.07330212843105e-07,1.4686187740436554e-06,0.5497207492589951,False,False
S14491,E131,22458308.820108954,GRB,ligo/raven/tests/data/injection_study/gw/337192/bayestar.fits.gz,ligo/raven/tests/data/injection_study/grb/glg_healpix_all_bn180127879_v00.fit,6.778512665220732e-05,nan,False,4.397779335693055e-07,19.853111606843125,2.2151587231178382e-08,False,False
S24069,E131,22458705.189216394,GRB,ligo/raven/tests/data/injection_study/gw/906534/bayestar.fits.gz,ligo/raven/tests/data/injection_study/grb/glg_healpix_all_bn180127879_v00.fit,0.00015367673364100092,nan,False,9.9702751468001e-07,9.344111772904443,1.06701154578559e-07,False,False
S32998,E133,90780946.72431934,GRB,ligo/raven/tests/data/injection_study/gw/510550/bayestar.fits.gz,ligo/raven/tests/data/injection_study/grb/glg_healpix_all_bn190530430_v00.fit,0.0002578858733576769,nan,False,1.673118013983406e-06,0.002787408956204082,0.0006002413138048723,False,False
S12647,E142,2775858.0165148526,GRB,ligo/raven/tests/data/injection_study/gw/823809/bayestar.fits.gz,ligo/raven/tests/data/injection_study/grb/glg_healpix_all_bn180812349_v00.fit,0.00021224549258330063,nan,False,1.3770112817904398e-06,0.02659311415823144,5.1780745707219467e-05,False,False
S20303,E146,31177933.972499803,GRB,ligo/raven/tests/data/injection_study/gw/519792/bayestar.fits.gz,ligo/raven/tests/data/injection_study/grb/glg_healpix_all_bn180210517_v00.fit,3.853787112043184e-05,nan,False,2.5002690357814415e-07,1.565459242118327e-08,15.971473217010498,False,True
S24872,E158,133708454.53841509,GRB,ligo/raven/tests/data/injection_study/gw/569374/bayestar.fits.gz,ligo/raven/tests/data/injection_study/grb/glg_healpix_all_bn190114873_v00.fit,9.766785424433466e-05,nan,False,6.336517940890054e-07,0.07032080765023846,9.01087196325534e-06,False,False
S31791,E169,94944475.53299396,GRB,ligo/raven/tests/data/injection_study/gw/518343/bayestar.fits.gz,ligo/raven/tests/data/injection_study/grb/glg_healpix_all_bn181231144_v00.fit,0.00014935782751264266,nan,False,9.690072142658134e-07,0.0029328916011813868,0.00033039312256732956,False,False
S25436,E175,129919507.94772342,GRB,ligo/raven/tests/data/injection_study/gw/700110/bayestar.fits.gz,ligo/raven/tests/data/injection_study/grb/glg_healpix_all_bn180128215_v00.fit,0.00016844486506134115,nan,False,1.0928405438720953e-06,6.180705643658798e-06,0.17681485041975975,False,False
S14585,E178,124873455.24256887,GRB,ligo/raven/tests/data/injection_study/gw/1051502/bayestar.fits.gz,ligo/raven/tests/data/injection_study/grb/glg_healpix_all_bn181028590_v00.fit,0.00023725441158283596,nan,False,1.5392647326816413e-06,0.024002019500873745,6.413063420040999e-05,False,False
S14230,E185,10618213.420402491,GRB,ligo/raven/tests/data/injection_study/gw/556895/bayestar.fits.gz,ligo/raven/tests/data/injection_study/grb/glg_healpix_all_bn180605458_v00.fit,8.448753122498421e-05,nan,False,5.481401854588969e-07,0.06973532180798571,7.860294772399357e-06,False,False
S8848,E193,16426351.726425514,GRB,ligo/raven/tests/data/injection_study/gw/388643/bayestar.fits.gz,ligo/raven/tests/data/injection_study/grb/glg_healpix_all_bn180128881_v00.fit,6.938458630911908e-05,nan,False,4.501549454225572e-07,1.3846546447828038e-06,0.32510268688201904,False,False
S33978,E202,50689682.40295826,GRB,ligo/raven/tests/data/injection_study/gw/1065681/bayestar.fits.gz,ligo/raven/tests/data/injection_study/grb/glg_healpix_all_bn190114873_v00.fit,0.00021290331174326726,nan,False,1.3812790963556723e-06,5.860057987375968e-05,0.023571082390844822,False,False
S24442,E207,134521677.42670354,GRB,ligo/raven/tests/data/injection_study/gw/632720/bayestar.fits.gz,ligo/raven/tests/data/injection_study/grb/glg_healpix_all_bn180116678_v00.fit,0.00022519463845323222,nan,False,1.4610230538917844e-06,0.00816142511435929,0.00017901567844091915,False,False
S7801,E209,41156178.76600018,GRB,ligo/raven/tests/data/injection_study/gw/889269/bayestar.fits.gz,ligo/raven/tests/data/injection_study/grb/glg_healpix_all_bn180418281_v00.fit,0.00016324759385284701,nan,False,1.0591215659022228e-06,1.524690760079182e-06,0.694646805524826,False,False
S19354,E213,146776255.18988222,GRB,ligo/raven/tests/data/injection_study/gw/633669/bayestar.fits.gz,ligo/raven/tests/data/injection_study/grb/glg_healpix_all_bn180809485_v00.fit,1.641254042428338e-05,nan,False,1.0648166447261478e-07,1.9404311400954867e-08,5.487526059150696,False,False
S14226,E214,68907030.89949179,GRB,ligo/raven/tests/data/injection_study/gw/784159/bayestar.fits.gz,ligo/raven/tests/data/injection_study/grb/glg_healpix_all_bn180427442_v00.fit,0.00019976852589652749,nan,False,1.2960629248614132e-06,0.04700180496239674,2.757474794634618e-05,False,False
S40612,E224,30914049.839841597,GRB,ligo/raven/tests/data/injection_study/gw/861793/bayestar.fits.gz,ligo/raven/tests/data/injection_study/grb/glg_healpix_all_bn180418281_v00.fit,2.1104945115892862e-05,nan,False,1.3692515762023337e-07,7.955300068286819e-05,0.0017211815575137734,False,False
S22869,E234,151352172.2329622,GRB,ligo/raven/tests/data/injection_study/gw/288172/bayestar.fits.gz,ligo/raven/tests/data/injection_study/grb/glg_healpix_all_bn190519309_v00.fit,0.00019834429175645413,nan,False,1.2868227452235705e-06,3.255338123965861e-06,0.395296186208725,False,False
S6498,E237,17888403.303432226,GRB,ligo/raven/tests/data/injection_study/gw/727980/bayestar.fits.gz,ligo/raven/tests/data/injection_study/grb/glg_healpix_all_bn180201706_v00.fit,0.00018051981236593187,nan,False,1.1711806700301136e-06,6.464274188432865e-07,1.8117744326591492,False,False
S19274,E240,60764041.41753533,GRB,ligo/raven/tests/data/injection_study/gw/655080/bayestar.fits.gz,ligo/raven/tests/data/injection_study/grb/glg_healpix_all_bn190406465_v00.fit,9.753871079130545e-05,nan,False,6.328139341673356e-07,1.087199633405401e-05,0.0582058634608984,False,False
S26670,E240,60764093.033152,GRB,ligo/raven/tests/data/injection_study/gw/674852/bayestar.fits.gz,ligo/raven/tests/data/injection_study/grb/glg_healpix_all_bn190406465_v00.fit,0.0002769381929934733,nan,False,1.7967260999005786e-06,0.0009572081583937623,0.0018770484603010118,False,False
S41217,E242,96522074.08565432,GRB,ligo/raven/tests/data/injection_study/gw/417956/bayestar.fits.gz,ligo/raven/tests/data/injection_study/grb/glg_healpix_all_bn180124392_v00.fit,0.00017657355148106686,nan,False,1.1455780261614117e-06,0.0004210344226559178,0.0027208654792048037,False,False
S15955,E245,130032170.56218529,GRB,ligo/raven/tests/data/injection_study/gw/623032/bayestar.fits.gz,ligo/raven/tests/data/injection_study/grb/glg_healpix_all_bn181121307_v00.fit,0.00012161810437805053,nan,False,7.89036788297474e-07,8.269880813601326e-06,0.09541090205311775,False,False
S33365,E254,147489180.68627256,GRB,ligo/raven/tests/data/injection_study/gw/937033/bayestar.fits.gz,ligo/raven/tests/data/injection_study/grb/glg_healpix_all_bn180715755_v00.fit,0.00019965227620147598,nan,False,1.2953087173649794e-06,0.0012392461910259638,0.001045239216182381,False,False
S23615,E261,104584500.57827143,GRB,ligo/raven/tests/data/injection_study/gw/577859/bayestar.fits.gz,ligo/raven/tests/data/injection_study/grb/glg_healpix_all_bn180404091_v00.fit,0.00020848151659002992,nan,False,1.3525912701141591e-06,0.08293951595654526,1.6308164504152955e-05,False,False
S31039,E261,104585098.7291981,GRB,ligo/raven/tests/data/injection_study/gw/983950/bayestar.fits.gz,ligo/raven/tests/data/injection_study/grb/glg_healpix_all_bn180404091_v00.fit,5.6716741024017386e-05,nan,False,3.679682018491235e-07,0.08984592182836591,4.0955470694825635e-06,False,False
S4972,E287,25349739.001046143,GRB,ligo/raven/tests/data/injection_study/gw/1042997/bayestar.fits.gz,ligo/raven/tests/data/injection_study/grb/glg_healpix_all_bn180208764_v00.fit,2.043034057534239e-05,nan,False,1.3254844246940172e-07,3.770026943037305,3.5158486788589016e-08,False,False
S17835,E287,25349573.84609215,GRB,ligo/raven/tests/data/injection_study/gw/527365/bayestar.fits.gz,ligo/raven/tests/data/injection_study/grb/glg_healpix_all_bn180208764_v00.fit,0.00017208744817931147,nan,False,1.116472980006568e-06,7.899248856739458,1.4133913239788853e-07,False,False
S34286,E291,103073469.26849383,GRB,ligo/raven/tests/data/injection_study/gw/684072/bayestar.fits.gz,ligo/raven/tests/data/injection_study/grb/glg_healpix_all_bn180201706_v00.fit,0.0002534145384087817,nan,False,1.644108782294417e-06,8.035362431186838e-06,0.20460916310548782,False,False
S19937,E292,108077358.6862038,GRB,ligo/raven/tests/data/injection_study/gw/931527/bayestar.fits.gz,ligo/raven/tests/data/injection_study/grb/glg_healpix_all_bn180623849_v00.fit,0.0002661624409357274,nan,False,1.7268149231180183e-06,0.02339113375137786,7.382348121609539e-05,False,False
S7196,E295,379861.51263645827,GRB,ligo/raven/tests/data/injection_study/gw/906534/bayestar.fits.gz,ligo/raven/tests/data/injection_study/grb/glg_healpix_all_bn180806944_v00.fit,0.0002609482436578669,nan,False,1.6929861317985656e-06,0.6925535326450091,2.444556344016746e-06,False,False
S12312,E299,7303383.024709285,GRB,ligo/raven/tests/data/injection_study/gw/793790/bayestar.fits.gz,ligo/raven/tests/data/injection_study/grb/glg_healpix_all_bn190202069_v00.fit,0.00023425761497894107,nan,False,1.5198220454303445e-06,0.556197012116671,2.7325246492182487e-06,False,False
S31459,E307,145397770.22586602,GRB,ligo/raven/tests/data/injection_study/gw/727601/bayestar.fits.gz,ligo/raven/tests/data/injection_study/grb/glg_healpix_all_bn180605458_v00.fit,7.731853746153011e-05,nan,False,5.016290196800184e-07,0.08705381799606873,5.762286264143768e-06,False,False
S15360,E309,77255104.19991487,GRB,ligo/raven/tests/data/injection_study/gw/878823/bayestar.fits.gz,ligo/raven/tests/data/injection_study/grb/glg_healpix_all_bn180211754_v00.fit,0.0001547547129850052,nan,False,1.0040212543357455e-06,0.0019081953895362157,0.0005261627084109932,False,False
S33651,E310,43445926.64956921,GRB,ligo/raven/tests/data/injection_study/gw/528605/bayestar.fits.gz,ligo/raven/tests/data/injection_study/grb/glg_healpix_all_bn190109217_v00.fit,5.065749530049013e-05,nan,False,3.2865688541604136e-07,2.084278671495092,1.5768375405400548e-07,False,False
S15921,E314,17368482.13090778,GRB,ligo/raven/tests/data/injection_study/gw/782279/bayestar.fits.gz,ligo/raven/tests/data/injection_study/grb/glg_healpix_all_bn181228120_v00.fit,0.0001571454311504877,nan,False,1.0195318116879056e-06,7.755054940026754e-06,0.13146674260497093,False,False
S16670,E317,104534156.32788746,GRB,ligo/raven/tests/data/injection_study/gw/892821/bayestar.fits.gz,ligo/raven/tests/data/injection_study/grb/glg_healpix_all_bn180818520_v00.fit,0.00015904911441392395,nan,False,1.031882572586531e-06,0.00331196405264071,0.00031156212935457006,False,False
S25215,E327,58385977.74318977,GRB,ligo/raven/tests/data/injection_study/gw/677637/bayestar.fits.gz,ligo/raven/tests/data/injection_study/grb/glg_healpix_all_bn180126095_v00.fit,0.00011000984795015166,nan,False,7.137244701484346e-07,0.000435382531248935,0.0016393043333664536,False,False
S28986,E332,108964027.65951343,GRB,ligo/raven/tests/data/injection_study/gw/602999/bayestar.fits.gz,ligo/raven/tests/data/injection_study/grb/glg_healpix_all_bn180116678_v00.fit,5.279616808081589e-05,nan,False,3.425322168104684e-07,0.00015674362508834481,0.002185302379075438,False,False
S23968,E340,149009366.61791995,GRB,ligo/raven/tests/data/injection_study/gw/942101/bayestar.fits.gz,ligo/raven/tests/data/injection_study/grb/glg_healpix_all_bn181007385_v00.fit,0.0001447732267028028,nan,False,9.392631336692496e-07,0.005131099526727981,0.0001830529945436865,False,False
S36866,E340,149009791.6604867,GRB,ligo/raven/tests/data/injection_study/gw/681374/bayestar.fits.gz,ligo/raven/tests/data/injection_study/grb/glg_healpix_all_bn181007385_v00.fit,0.00018964320653370548,nan,False,1.2303716405630435e-06,0.0003924531471258089,0.003135079052299261,False,False
S842,E346,89698907.17127901,GRB,ligo/raven/tests/data/injection_study/gw/1043680/bayestar.fits.gz,ligo/raven/tests/data/injection_study/grb/glg_healpix_all_bn180418281_v00.fit,6.312826090157641e-05,nan,False,4.0956501079599613e-07,2.2996533138041265e-07,1.7809858918190002,False,False
S29626,E346,89699186.74270946,GRB,ligo/raven/tests/data/injection_study/gw/523314/bayestar.fits.gz,ligo/raven/tests/data/injection_study/grb/glg_healpix_all_bn180418281_v00.fit,5.160029356675015e-05,nan,False,3.347735941069597e-07,3.068847895704704e-07,1.090877115726471,False,False
S33897,E347,95817377.30802777,GRB,ligo/raven/tests/data/injection_study/gw/862855/bayestar.fits.gz,ligo/raven/tests/data/injection_study/grb/glg_healpix_all_bn190425089_v00.fit,4.634352002989487e-05,nan,False,3.006685755364184e-07,0.0008316103736803821,0.0003615498135332018,False,False
S40391,E355,13074628.012118384,GRB,ligo/raven/tests/data/injection_study/gw/569043/bayestar.fits.gz,ligo/raven/tests/data/injection_study/grb/glg_healpix_all_bn181128751_v00.fit,0.00015931256665749767,nan,False,1.033591804227677e-06,7.14850187417293e-08,14.458858966827393,False,False
S31959,E362,121958260.84464267,GRB,ligo/raven/tests/data/injection_study/gw/762948/bayestar.fits.gz,ligo/raven/tests/data/injection_study/grb/glg_healpix_all_bn190510120_v00.fit,0.00024950175702478597,nan,False,1.6187233475162104e-06,0.6482972271911107,2.4968845764306025e-06,False,False
S996,E364,19639219.70921185,GRB,ligo/raven/tests/data/injection_study/gw/777688/bayestar.fits.gz,ligo/raven/tests/data/injection_study/grb/glg_healpix_all_bn180127879_v00.fit,0.00025124757639480554,nan,False,1.630049915346817e-06,3.2964369708038826e-05,0.04944884218275547,False,False
S5163,E368,63814203.28897446,GRB,ligo/raven/tests/data/injection_study/gw/738648/bayestar.fits.gz,ligo/raven/tests/data/injection_study/grb/glg_healpix_all_bn180703876_v00.fit,0.0001303807533946258,nan,False,8.45887307982637e-07,7.418100924954557e-05,0.011403016978874803,False,False
S28715,E373,131301793.07989103,GRB,ligo/raven/tests/data/injection_study/gw/677300/bayestar.fits.gz,ligo/raven/tests/data/injection_study/grb/glg_healpix_all_bn180806944_v00.fit,6.121509312505296e-05,nan,False,3.971527160510476e-07,2.1853462869692366e-05,0.018173445481806993,False,False
S5598,E389,36453023.32868016,GRB,ligo/raven/tests/data/injection_study/gw/906534/bayestar.fits.gz,ligo/raven/tests/data/injection_study/grb/glg_healpix_all_bn180728728_v00.fit,0.00025615681804610504,nan,False,1.6619002084041442e-06,0.2096915277162835,7.925452337076422e-06,False,False
S28520,E389,36453088.244816415,GRB,ligo/raven/tests/data/injection_study/gw/471461/bayestar.fits.gz,ligo/raven/tests/data/injection_study/grb/glg_healpix_all_bn180728728_v00.fit,0.00018448643978393,nan,False,1.1969154483698657e-06,0.1371007318405331,8.730190074857092e-06,False,False
S38943,E394,37393900.1260723,GRB,ligo/raven/tests/data/injection_study/gw/539233/bayestar.fits.gz,ligo/raven/tests/data/injection_study/grb/glg_healpix_all_bn190422957_v00.fit,0.00012410481844410653,nan,False,8.051701501035071e-07,3.110970968729777,2.588163496852758e-07,False,False
S11111,E402,115766842.56974506,GRB,ligo/raven/tests/data/injection_study/gw/777688/bayestar.fits.gz,ligo/raven/tests/data/injection_study/grb/glg_healpix_all_bn180314030_v00.fit,3.111278093561376e-05,nan,False,2.0185422943387162e-07,0.04525584482448677,4.460290824681579e-06,False,False
S41110,E408,87742772.51674727,GRB,ligo/raven/tests/data/injection_study/gw/694948/bayestar.fits.gz,ligo/raven/tests/data/injection_study/grb/glg_healpix_all_bn180127879_v00.fit,2.4243138041144777e-05,nan,False,1.572851992395428e-07,4.908127853852581e-07,0.32045864313840866,False,False
S3289,E410,92191038.29448098,GRB,ligo/raven/tests/data/injection_study/gw/520997/bayestar.fits.gz,ligo/raven/tests/data/injection_study/grb/glg_healpix_all_bn180515814_v00.fit,0.0002145214759303997,nan,False,1.3917774598985218e-06,0.3403483912740197,4.089272920282383e-06,False,False
S22448,E415,131939952.75994538,GRB,ligo/raven/tests/data/injection_study/gw/521547/bayestar.fits.gz,ligo/raven/tests/data/injection_study/grb/glg_healpix_all_bn180630467_v00.fit,7.3296869516436486e-06,nan,False,4.7553714811843306e-08,1.2872850163161792e-06,0.03694109246134758,False,False
S20867,E427,76453333.17178687,GRB,ligo/raven/tests/data/injection_study/gw/576421/bayestar.fits.gz,ligo/raven/tests/data/injection_study/grb/glg_healpix_all_bn180113011_v00.fit,8.323061470293717e-05,nan,False,5.399855329851898e-07,0.0009794423286467232,0.0005513193755177781,False,False
S40629,E434,53493807.01343878,GRB,ligo/raven/tests/data/injection_study/gw/609332/bayestar.fits.gz,ligo/raven/tests/data/injection_study/grb/glg_healpix_all_bn180812349_v00.fit,5.5843265425754144e-05,nan,False,3.6230124638854955e-07,0.00018833791457290177,0.0019236766383983195,False,False
S41582,E439,152072664.11317217,GRB,ligo/raven/tests/data/injection_study/gw/636545/bayestar.fits.gz,ligo/raven/tests/data/injection_study/grb/glg_healpix_all_bn190109217_v00.fit,1.6253604970834718e-05,nan,False,1.0545051931230287e-07,3.899604345620222e-05,0.0027041338034905493,False,False
S3689,E450,123147548.61936906,GRB,ligo/raven/tests/data/injection_study/gw/630197/bayestar.fits.gz,ligo/raven/tests/data/injection_study/grb/glg_healpix_all_bn181029892_v00.fit,4.7641299016978855e-05,nan,False,3.090883364686033e-07,5.91113832711629e-06,0.05228913947939873,False,False
S2295,E455,47796311.33459102,GRB,ligo/raven/tests/data/injection_study/gw/754550/bayestar.fits.gz,ligo/raven/tests/data/injection_study/grb/glg_healpix_all_bn180211754_v00.fit,7.473484008113025e-05,nan,False,4.848664472539082e-07,4.902181842327064,9.89082948876785e-08,False,False
S21862,E459,114939870.77275187,GRB,ligo/raven/tests/data/injection_study/gw/762114/bayestar.fits.gz,ligo/raven/tests/data/injection_study/grb/glg_healpix_all_bn190519309_v00.fit,9.844642809954134e-05,nan,False,6.387030437964916e-07,0.08236663173547497,7.754390708214487e-06,False,False
S26554,E459,114939796.91965339,GRB,ligo/raven/tests/data/injection_study/gw/923662/bayestar.fits.gz,ligo/raven/tests/data/injection_study/grb/glg_healpix_all_bn190519309_v00.fit,7.843203529769335e-05,nan,False,5.08853197041732e-07,0.0798175714322426,6.375202701747185e-06,False,False
S32862,E465,15273640.639338018,GRB,ligo/raven/tests/data/injection_study/gw/823809/bayestar.fits.gz,ligo/raven/tests/data/injection_study/grb/glg_healpix_all_bn190613449_v00.fit,0.0002192516250319199,nan,False,1.4224658321134834e-06,1.7751910630896e-08,80.13029479980469,False,False
S40243,E474,74628082.36083543,GRB,ligo/raven/tests/data/injection_study/gw/793099/bayestar.fits.gz,ligo/raven/tests/data/injection_study/grb/glg_healpix_all_bn180128881_v00.fit,0.00011156632557023445,nan,False,7.238226221356536e-07,5.096405798322035e-06,0.14202609658241272,False,False
S5167,E477,38523972.506518774,GRB,ligo/raven/tests/data/injection_study/gw/1043680/bayestar.fits.gz,ligo/raven/tests/data/injection_study/grb/glg_healpix_all_bn190331093_v00.fit,0.00013551318446374596,nan,False,8.791856145764341e-07,4.561969405582414e-06,0.19272062927484512,False,False
S1686,E483,105214246.78813398,GRB,ligo/raven/tests/data/injection_study/gw/967600/bayestar.fits.gz,ligo/raven/tests/data/injection_study/grb/glg_healpix_all_bn190129515_v00.fit,0.00010167290585955106,nan,False,6.596358618361285e-07,1.8750243907819627e-07,3.5180121660232544,False,False
S16917,E484,100669589.08893138,GRB,ligo/raven/tests/data/injection_study/gw/516254/bayestar.fits.gz,ligo/raven/tests/data/injection_study/grb/glg_healpix_all_bn190217188_v00.fit,0.00010485530814265553,nan,False,6.802827259635757e-07,0.8058555116852157,8.441745649179211e-07,False,False
S7636,E490,38051103.95542498,GRB,ligo/raven/tests/data/injection_study/gw/899313/bayestar.fits.gz,ligo/raven/tests/data/injection_study/grb/glg_healpix_all_bn180724807_v00.fit,9.214678027474841e-05,nan,False,5.978320409758221e-07,0.04166572175794813,1.4348294371302472e-05,False,False
S5577,E493,85613400.35432163,GRB,ligo/raven/tests/data/injection_study/gw/918275/bayestar.fits.gz,ligo/raven/tests/data/injection_study/grb/glg_healpix_all_bn180620354_v00.fit,0.00010567990775430651,nan,False,6.856325826525595e-07,7.4450370657989104e-06,0.09209256805479527,False,False
S28707,E504,86308898.13372707,GRB,ligo/raven/tests/data/injection_study/gw/683069/bayestar.fits.gz,ligo/raven/tests/data/injection_study/grb/glg_healpix_all_bn181119606_v00.fit,3.895658721289564e-05,nan,False,2.5274345965748505e-07,0.028858851059843208,8.757918294577394e-06,False,False
S10477,E506,67585341.62605242,GRB,ligo/raven/tests/data/injection_study/gw/623525/bayestar.fits.gz,ligo/raven/tests/data/injection_study/grb/glg_healpix_all_bn190217188_v00.fit,0.00020505456643485373,nan,False,1.3303578225701128e-06,8.108489899722272,1.6406973912808098e-07,False,False
S13512,E513,70638284.37047304,GRB,ligo/raven/tests/data/injection_study/gw/770669/bayestar.fits.gz,ligo/raven/tests/data/injection_study/grb/glg_healpix_all_bn180703876_v00.fit,8.2686248336638e-06,nan,False,5.3645378011403277e-08,2.3200931687986435e-06,0.023122079204767942,False,False
S20451,E520,117666808.03709352,GRB,ligo/raven/tests/data/injection_study/gw/753692/bayestar.fits.gz,ligo/raven/tests/data/injection_study/grb/glg_healpix_all_bn180720598_v00.fit,0.00018015351343709035,nan,False,1.1688041872535733e-06,0.1836400682549813,6.3646468788647326e-06,False,False
S31315,E523,98241883.4069615,GRB,ligo/raven/tests/data/injection_study/gw/469692/bayestar.fits.gz,ligo/raven/tests/data/injection_study/grb/glg_healpix_all_bn190109217_v00.fit,4.532002264600814e-05,nan,False,2.9402830521858404e-07,0.011431390027614391,2.5721133170009125e-05,False,False
S11097,E531,34477809.67715558,GRB,ligo/raven/tests/data/injection_study/gw/572182/bayestar.fits.gz,ligo/raven/tests/data/injection_study/grb/glg_healpix_all_bn181231144_v00.fit,0.00016794049573422534,nan,False,1.0895682847292778e-06,9.677355263037514,1.1258946841508077e-07,False,False
S25445,E538,6697579.822171462,GRB,ligo/raven/tests/data/injection_study/gw/904376/bayestar.fits.gz,ligo/raven/tests/data/injection_study/grb/glg_healpix_all_bn180216512_v00.fit,2.908673543269538e-05,nan,False,1.8870960392977786e-07,0.22043859244885963,8.560642754673609e-07,False,False
S26364,E542,44538152.183083035,GRB,ligo/raven/tests/data/injection_study/gw/504768/bayestar.fits.gz,ligo/raven/tests/data/injection_study/grb/glg_healpix_all_bn190323179_v00.fit,0.00014393241739396015,nan,False,9.338081113268724e-07,3.3795766878448297,2.7630919419152633e-07,False,False
S19163,E544,115154719.64816532,GRB,ligo/raven/tests/data/injection_study/gw/653497/bayestar.fits.gz,ligo/raven/tests/data/injection_study/grb/glg_healpix_all_bn190323179_v00.fit,0.00017748641042638494,nan,False,1.151500493824149e-06,0.331799700588519,3.4704687550402014e-06,False,False
S27787,E556,115849870.21100318,GRB,ligo/raven/tests/data/injection_study/gw/596094/bayestar.fits.gz,ligo/raven/tests/data/injection_study/grb/glg_healpix_all_bn180623849_v00.fit,0.00011601148901694163,nan,False,7.526620577392903e-07,1.8480932469284796e-06,0.4072641134262085,False,False
S39887,E557,132532500.841164,GRB,ligo/raven/tests/data/injection_study/gw/1054305/bayestar.fits.gz,ligo/raven/tests/data/injection_study/grb/glg_healpix_all_bn180818520_v00.fit,5.159508782859605e-05,nan,False,3.3473982019694165e-07,0.0007911277213741824,0.0004231172933941707,False,False
S15809,E569,54159394.95029086,GRB,ligo/raven/tests/data/injection_study/gw/682043/bayestar.fits.gz,ligo/raven/tests/data/injection_study/grb/glg_healpix_all_bn180427442_v00.fit,4.890175901694247e-06,nan,False,3.172659784013962e-08,0.0010437252842492616,3.0397460250242148e-05,False,False
S35255,E573,53568582.49948732,GRB,ligo/raven/tests/data/injection_study/gw/932993/bayestar.fits.gz,ligo/raven/tests/data/injection_study/grb/glg_healpix_all_bn181231144_v00.fit,0.0002743231294454799,nan,False,1.7797600293171357e-06,37.211797918549024,4.7827843019376814e-08,False,False
S4245,E589,99709402.1609816,GRB,ligo/raven/tests/data/injection_study/gw/860933/bayestar.fits.gz,ligo/raven/tests/data/injection_study/grb/glg_healpix_all_bn180314030_v00.fit,0.00022132706978211688,nan,False,1.4359309512119836e-06,0.2604758800828499,5.512721372724627e-06,False,False
S22048,E592,144516640.42110527,GRB,ligo/raven/tests/data/injection_study/gw/773425/bayestar.fits.gz,ligo/raven/tests/data/injection_study/grb/glg_healpix_all_bn190323879_v00.fit,6.340626628997811e-05,nan,False,4.1136866067128115e-07,0.0002955297026428925,0.0013919706107117236,False,False
S1144,E593,1122462.1896049082,GRB,ligo/raven/tests/data/injection_study/gw/314183/bayestar.fits.gz,ligo/raven/tests/data/injection_study/grb/glg_healpix_all_bn190530430_v00.fit,0.000262251163415968,nan,False,1.7014392451454547e-06,0.012026703164231612,0.00014147179172141477,False,False
S31769,E594,77256327.80102617,GRB,ligo/raven/tests/data/injection_study/gw/653497/bayestar.fits.gz,ligo/raven/tests/data/injection_study/grb/glg_healpix_all_bn180828790_v00.fit,4.760676765628185e-05,nan,False,3.088643030972624e-07,2.6175514280971917e-06,0.1179974153637886,False,False
S5122,E596,93325754.73533152,GRB,ligo/raven/tests/data/injection_study/gw/493048/bayestar.fits.gz,ligo/raven/tests/data/injection_study/grb/glg_healpix_all_bn180227211_v00.fit,4.8660339249424295e-06,nan,False,3.156996895748418e-08,0.4944876270678408,6.384379958035424e-08,False,False
S10816,E602,48276195.833449356,GRB,ligo/raven/tests/data/injection_study/gw/833111/bayestar.fits.gz,ligo/raven/tests/data/injection_study/grb/glg_healpix_all_bn181119606_v00.fit,0.0001464346770195755,nan,False,9.500423299786006e-07,3.1122828343901315e-05,0.030525578185915947,False,False
S978,E604,72897473.85680233,GRB,ligo/raven/tests/data/injection_study/gw/918275/bayestar.fits.gz,ligo/raven/tests/data/injection_study/grb/glg_healpix_all_bn180125891_v00.fit,0.00026386354381814934,nan,False,1.711900084512727e-06,0.43381331536373097,3.9461676806240575e-06,False,False
S10804,E609,38018762.23702558,GRB,ligo/raven/tests/data/injection_study/gw/288830/bayestar.fits.gz,ligo/raven/tests/data/injection_study/grb/glg_healpix_all_bn190511302_v00.fit,0.00026156574987836725,nan,False,1.6969924031301986e-06,0.02530886379766752,6.705130726913922e-05,False,False
S17691,E619,122380608.00712019,GRB,ligo/raven/tests/data/injection_study/gw/770669/bayestar.fits.gz,ligo/raven/tests/data/injection_study/grb/glg_healpix_all_bn180128215_v00.fit,0.00012229584763397518,nan,False,7.934338668794813e-07,4.295725934511076e-06,0.18470309302210808,False,False
S22419,E623,7657481.682285463,GRB,ligo/raven/tests/data/injection_study/gw/700679/bayestar.fits.gz,ligo/raven/tests/data/injection_study/grb/glg_healpix_all_bn180126095_v00.fit,7.603491257383454e-06,nan,False,4.9330108804561604e-08,0.006663302796956806,7.403251856885618e-06,False,False
S28372,E623,7657723.421090206,GRB,ligo/raven/tests/data/injection_study/gw/750243/bayestar.fits.gz,ligo/raven/tests/data/injection_study/grb/glg_healpix_all_bn180126095_v00.fit,0.00025742926089384775,nan,False,1.6701555929376347e-06,0.41051843619402123,4.068405814905418e-06,False,False
S42706,E627,19422622.379827533,GRB,ligo/raven/tests/data/injection_study/gw/830333/bayestar.fits.gz,ligo/raven/tests/data/injection_study/grb/glg_healpix_all_bn180125891_v00.fit,5.230139867021162e-05,nan,False,3.393222402310153e-07,0.0008886572340514361,0.0003818370314547792,False,False
S28522,E644,120278800.99459572,GRB,ligo/raven/tests/data/injection_study/gw/678128/bayestar.fits.gz,ligo/raven/tests/data/injection_study/grb/glg_healpix_all_bn190425089_v00.fit,0.00011175986053925299,nan,False,7.250782428440881e-07,8.028404663909291e-06,0.0903141126036644,False,False
S14675,E646,432731.40643686824,GRB,ligo/raven/tests/data/injection_study/gw/518038/bayestar.fits.gz,ligo/raven/tests/data/injection_study/grb/glg_healpix_all_bn181028590_v00.fit,0.00014096328096973833,nan,False,9.145448784376099e-07,1.1153826362838563e-06,0.8199382424354553,False,False
S31295,E659,111258914.14234287,GRB,ligo/raven/tests/data/injection_study/gw/933874/bayestar.fits.gz,ligo/raven/tests/data/injection_study/grb/glg_healpix_all_bn190601325_v00.fit,0.00023344718375134342,nan,False,1.5145641107155272e-06,7.427488615062791e-06,0.2039133533835411,False,False
S19677,E669,102401303.94293526,GRB,ligo/raven/tests/data/injection_study/gw/673140/bayestar.fits.gz,ligo/raven/tests/data/injection_study/grb/glg_healpix_all_bn180720598_v00.fit,0.0001181818600171122,nan,False,7.667430415874289e-07,0.05306635640111927,1.4448759884544415e-05,False,False
S38908,E670,58578137.78752057,GRB,ligo/raven/tests/data/injection_study/gw/930001/bayestar.fits.gz,ligo/raven/tests/data/injection_study/grb/glg_healpix_all_bn190324947_v00.fit,5.535400080564116e-05,nan,False,3.5912698391787743e-07,0.05619294846589174,6.39096174381848e-06,False,False
S7110,E697,31746177.51981182,GRB,ligo/raven/tests/data/injection_study/gw/609386/bayestar.fits.gz,ligo/raven/tests/data/injection_study/grb/glg_healpix_all_bn180630467_v00.fit,0.00017177231980732162,nan,False,1.1144284827682016e-06,0.828539523308042,1.3450516860302741e-06,False,False
S5170,E702,64343767.871935286,GRB,ligo/raven/tests/data/injection_study/gw/509523/bayestar.fits.gz,ligo/raven/tests/data/injection_study/grb/glg_healpix_all_bn180410336_v00.fit,0.00010919413750287108,nan,False,7.08432284788414e-07,0.0005587654125723031,0.0012678527855314314,False,False
S40021,E702,64343963.429591395,GRB,ligo/raven/tests/data/injection_study/gw/727601/bayestar.fits.gz,ligo/raven/tests/data/injection_study/grb/glg_healpix_all_bn180410336_v00.fit,0.00023851143351374707,nan,False,1.5474200690294474e-06,6.104775610066493e-06,0.25347697734832764,False,False
S32156,E715,79661706.3665135,GRB,ligo/raven/tests/data/injection_study/gw/832240/bayestar.fits.gz,ligo/raven/tests/data/injection_study/grb/glg_healpix_all_bn181010247_v00.fit,0.000273004949430411,nan,False,1.7712079101173926e-06,2.1074604005649846e-06,0.8404465913772583,False,False
S43221,E718,137985368.2078418,GRB,ligo/raven/tests/data/injection_study/gw/670872/bayestar.fits.gz,ligo/raven/tests/data/injection_study/grb/glg_healpix_all_bn180718763_v00.fit,0.00012320754138036864,nan,False,7.993487749373232e-07,1.7591715081280588,4.5438933682362403e-07,False,False
S40878,E724,61010313.40653577,GRB,ligo/raven/tests/data/injection_study/gw/684072/bayestar.fits.gz,ligo/raven/tests/data/injection_study/grb/glg_healpix_all_bn180127049_v00.fit,0.00016196663391661507,nan,False,1.0508109240023924e-06,2.627582438282834e-05,0.03999154921621084,False,False
S34988,E725,157325468.4003498,GRB,ligo/raven/tests/data/injection_study/gw/790258/bayestar.fits.gz,ligo/raven/tests/data/injection_study/grb/glg_healpix_all_bn180112842_v00.fit,0.00010268598809269613,nan,False,6.662085604948513e-07,2.253877842612158e-07,2.955832600593567,False,False
S35030,E732,136364391.25942433,GRB,ligo/raven/tests/data/injection_study/gw/866970/bayestar.fits.gz,ligo/raven/tests/data/injection_study/grb/glg_healpix_all_bn181027076_v00.fit,1.6105933570538984e-06,nan,False,1.0449245334006457e-08,0.04536794399367636,2.3032221463381575e-07,False,False
S37091,E738,152196659.4209353,GRB,ligo/raven/tests/data/injection_study/gw/762176/bayestar.fits.gz,ligo/raven/tests/data/injection_study/grb/glg_healpix_all_bn180515814_v00.fit,0.00011830794283952759,nan,False,7.675610446780615e-07,0.2701865330661129,2.8408560410753125e-06,False,False
S8487,E739,29596577.193163004,GRB,ligo/raven/tests/data/injection_study/gw/939245/bayestar.fits.gz,ligo/raven/tests/data/injection_study/grb/glg_healpix_all_bn181027076_v00.fit,0.00023375281164472785,nan,False,1.5165469705261073e-06,6.038804002666427,2.5113366319828856e-07,False,False
S30267,E742,58376494.73130423,GRB,ligo/raven/tests/data/injection_study/gw/780521/bayestar.fits.gz,ligo/raven/tests/data/injection_study/grb/glg_healpix_all_bn181231144_v00.fit,0.00027204286418921667,nan,False,1.764966070938411e-06,5.044744930019102e-07,3.498623013496399,False,False
S35175,E753,91047284.7086645,GRB,ligo/raven/tests/data/injection_study/gw/702927/bayestar.fits.gz,ligo/raven/tests/data/injection_study/grb/glg_healpix_all_bn180128881_v00.fit,0.00025162589376396833,nan,False,1.6325043716421843e-06,8.677428025401985e-06,0.18813228607177734,False,False
S19247,E767,13793268.03285188,GRB,ligo/raven/tests/data/injection_study/gw/717202/bayestar.fits.gz,ligo/raven/tests/data/injection_study/grb/glg_healpix_all_bn190202069_v00.fit,0.00023043412664423482,nan,False,1.4950159281903364e-06,0.31417747661174716,4.758507657243172e-06,False,False
S11395,E769,135109169.1354373,GRB,ligo/raven/tests/data/injection_study/gw/533287/bayestar.fits.gz,ligo/raven/tests/data/injection_study/grb/glg_healpix_all_bn180131528_v00.fit,5.037105655345249e-05,nan,False,3.267985213989212e-07,9.332407916278751e-06,0.03501759935170412,False,False
S22636,E770,65558822.8853999,GRB,ligo/raven/tests/data/injection_study/gw/718452/bayestar.fits.gz,ligo/raven/tests/data/injection_study/grb/glg_healpix_all_bn180728728_v00.fit,0.0002543961740510626,nan,False,1.6504774610238272e-06,3.392896563564394e-08,48.64508628845215,False,False
S39054,E771,84935856.38003016,GRB,ligo/raven/tests/data/injection_study/gw/861793/bayestar.fits.gz,ligo/raven/tests/data/injection_study/grb/glg_healpix_all_bn180127049_v00.fit,0.00021655705668523632,nan,False,1.4049839484335158e-06,1.3015742600933016,1.079449702956481e-06,False,False
S9902,E775,12251713.991932252,GRB,ligo/raven/tests/data/injection_study/gw/510550/bayestar.fits.gz,ligo/raven/tests/data/injection_study/grb/glg_healpix_all_bn180305393_v00.fit,0.0001630105937462662,nan,False,1.0575839510554944e-06,0.0002185939226595682,0.0048381214728578925,False,False
S26675,E777,466304.18222069653,GRB,ligo/raven/tests/data/injection_study/gw/608145/bayestar.fits.gz,ligo/raven/tests/data/injection_study/grb/glg_healpix_all_bn190613449_v00.fit,5.478636519024453e-05,nan,False,3.554442642669974e-07,1.7529326710835622e-05,0.020277120172977448,False,False
S2953,E785,67671598.17040156,GRB,ligo/raven/tests/data/injection_study/gw/521547/bayestar.fits.gz,ligo/raven/tests/data/injection_study/grb/glg_healpix_all_bn181231144_v00.fit,0.0002657441915257019,nan,False,1.72410139479194e-06,5.901543149495131,2.921441648595646e-07,False,False
S8960,E789,71152430.18551762,GRB,ligo/raven/tests/data/injection_study/gw/510550/bayestar.fits.gz,ligo/raven/tests/data/injection_study/grb/glg_healpix_all_bn181128751_v00.fit,2.344880043207206e-05,nan,False,1.52131677080224e-07,0.008361718337376202,1.8193829419033136e-05,False,False
S29392,E791,151589491.4048722,GRB,ligo/raven/tests/data/injection_study/gw/651826/bayestar.fits.gz,ligo/raven/tests/data/injection_study/grb/glg_healpix_all_bn190613172_v00.fit,6.804158202944156e-05,nan,False,4.4144177077700866e-07,1.3677783510875563,3.227436451425092e-07,False,False
S4412,E799,37969182.424907394,GRB,ligo/raven/tests/data/injection_study/gw/856199/bayestar.fits.gz,ligo/raven/tests/data/injection_study/grb/glg_healpix_all_bn180809485_v00.fit,8.634650264876114e-05,nan,False,5.602008638361406e-07,2.58285436692884e-06,0.21689216047525406,False,False
S15477,E803,138745909.54294068,GRB,ligo/raven/tests/data/injection_study/gw/816092/bayestar.fits.gz,ligo/raven/tests/data/injection_study/grb/glg_healpix_all_bn181208188_v00.fit,0.0002499446994631831,nan,False,1.6215970798505602e-06,1.5243855203504384,1.0637709806360363e-06,False,False
S37651,E804,154342980.3382531,GRB,ligo/raven/tests/data/injection_study/gw/763905/bayestar.fits.gz,ligo/raven/tests/data/injection_study/grb/glg_healpix_all_bn181226600_v00.fit,2.5070276380345553e-05,nan,False,1.6265152674463155e-07,0.6253604340506473,2.6009244891156413e-07,False,False
S15865,E806,90352663.6042313,GRB,ligo/raven/tests/data/injection_study/gw/711826/bayestar.fits.gz,ligo/raven/tests/data/injection_study/grb/glg_healpix_all_bn190406465_v00.fit,8.710259659270303e-06,nan,False,5.651062678483968e-08,8.949010384961214e-07,0.06314734742045403,False,False
S12585,E809,29782234.835635297,GRB,ligo/raven/tests/data/injection_study/gw/673526/bayestar.fits.gz,ligo/raven/tests/data/injection_study/grb/glg_healpix_all_bn180201706_v00.fit,3.83670706803329e-05,nan,False,2.4891878047932875e-07,1.5181718096630672e-06,0.1639595590531826,False,False
S39486,E814,92269517.1882371,GRB,ligo/raven/tests/data/injection_study/gw/791907/bayestar.fits.gz,ligo/raven/tests/data/injection_study/grb/glg_healpix_all_bn180515814_v00.fit,3.7696485658521204e-05,nan,False,2.4456814325638757e-07,0.06551784189631026,3.7328479720599717e-06,False,False
S12347,E817,61001044.99580732,GRB,ligo/raven/tests/data/injection_study/gw/662244/bayestar.fits.gz,ligo/raven/tests/data/injection_study/grb/glg_healpix_all_bn180112842_v00.fit,0.00012017211915328667,nan,False,7.796554914625334e-07,0.013099449743866252,5.951818639005069e-05,False,False
S24742,E824,15337572.391517058,GRB,ligo/raven/tests/data/injection_study/gw/778067/bayestar.fits.gz,ligo/raven/tests/data/injection_study/grb/glg_healpix_all_bn181222279_v00.fit,6.60376816356173e-05,nan,False,4.2844081883077435e-07,0.11677818763229618,3.6688428508568904e-06,False,False
S26230,E837,112079550.8351603,GRB,ligo/raven/tests/data/injection_study/gw/789049/bayestar.fits.gz,ligo/raven/tests/data/injection_study/grb/glg_healpix_all_bn180809485_v00.fit,0.00014156577332190355,nan,False,9.184537424423347e-07,1.1141594669306627,8.243467561896978e-07,False,False
S16304,E842,141539489.08681357,GRB,ligo/raven/tests/data/injection_study/gw/924981/bayestar.fits.gz,ligo/raven/tests/data/injection_study/grb/glg_healpix_all_bn180528371_v00.fit,4.251673705571193e-05,nan,False,2.758410832571874e-07,2.1644321527967164e-06,0.12744270265102386,False,False
S30464,E846,56172511.110917434,GRB,ligo/raven/tests/data/injection_study/gw/756521/bayestar.fits.gz,ligo/raven/tests/data/injection_study/grb/glg_healpix_all_bn180805543_v00.fit,0.0002635121001151622,nan,False,1.7096199798186892e-06,0.00112389652881566,0.0015211542486213148,False,False
S1315,E847,120368637.89515042,GRB,ligo/raven/tests/data/injection_study/gw/635745/bayestar.fits.gz,ligo/raven/tests/data/injection_study/grb/glg_healpix_all_bn190220844_v00.fit,0.00010618462985600661,nan,False,6.88907130534594e-07,7.036343599589481e-06,0.09790697693824768,False,False
S2425,E855,34111496.6961614,GRB,ligo/raven/tests/data/injection_study/gw/521547/bayestar.fits.gz,ligo/raven/tests/data/injection_study/grb/glg_healpix_all_bn190331093_v00.fit,0.00010000124427377848,nan,False,6.487904166164092e-07,7.819876164104644e-07,0.829668402671814,False,False
S33374,E855,34111045.18252248,GRB,ligo/raven/tests/data/injection_study/gw/832240/bayestar.fits.gz,ligo/raven/tests/data/injection_study/grb/glg_healpix_all_bn190331093_v00.fit,0.00019865082936794344,nan,False,1.2888115071245951e-06,4.271346045649684e-06,0.3017342761158943,False,False
S32816,E864,88264677.43036316,GRB,ligo/raven/tests/data/injection_study/gw/750243/bayestar.fits.gz,ligo/raven/tests/data/injection_study/grb/glg_healpix_all_bn180116678_v00.fit,0.00015294085310861273,nan,False,9.922532517130316e-07,9.711755774402887e-06,0.10217032581567764,False,False
S24909,E868,96291651.74304426,GRB,ligo/raven/tests/data/injection_study/gw/856199/bayestar.fits.gz,ligo/raven/tests/data/injection_study/grb/glg_healpix_all_bn181020792_v00.fit,0.00019549080428627415,nan,False,1.268309822329138e-06,9.500406776105841e-08,13.35005807876587,False,False
S31084,E870,147723.23819365748,GRB,ligo/raven/tests/data/injection_study/gw/788580/bayestar.fits.gz,ligo/raven/tests/data/injection_study/grb/glg_healpix_all_bn181231144_v00.fit,0.00022335503006109443,nan,False,1.4490879994450762e-06,0.00024496581899207293,0.005915470188483596,False,False
S16677,E871,29398958.085149914,GRB,ligo/raven/tests/data/injection_study/gw/717111/bayestar.fits.gz,ligo/raven/tests/data/injection_study/grb/glg_healpix_all_bn180528371_v00.fit,0.00020250425577950185,nan,False,1.3138118573213496e-06,0.008101350290472884,0.00016217196025536396,False,False
S33424,E874,130783719.83531816,GRB,ligo/raven/tests/data/injection_study/gw/927563/bayestar.fits.gz,ligo/raven/tests/data/injection_study/grb/glg_healpix_all_bn190422284_v00.fit,8.64841997143537e-05,nan,False,5.610942180858945e-07,4.034003058784662e-05,0.013909117318689823,False,False
S42831,E877,116618146.25130399,GRB,ligo/raven/tests/data/injection_study/gw/471461/bayestar.fits.gz,ligo/raven/tests/data/injection_study/grb/glg_healpix_all_bn180724807_v00.fit,0.00020705535373954456,nan,False,1.3433385773436967e-06,0.1008548108904141,1.3319528989086393e-05,False,False
S11349,E882,29766839.474612154,GRB,ligo/raven/tests/data/injection_study/gw/536500/bayestar.fits.gz,ligo/raven/tests/data/injection_study/grb/glg_healpix_all_bn181226600_v00.fit,0.00010172545722908133,nan,False,6.599768058431647e-07,7.2306045686062786e-06,0.09127546660602093,False,False
S33215,E896,150634732.54935914,GRB,ligo/raven/tests/data/injection_study/gw/765408/bayestar.fits.gz,ligo/raven/tests/data/injection_study/grb/glg_healpix_all_bn190129515_v00.fit,0.000159668598364089,nan,False,1.0359016750790402e-06,0.016387352194502755,6.321348701021634e-05,False,False
S12927,E897,115370969.28326243,GRB,ligo/raven/tests/data/injection_study/gw/718452/bayestar.fits.gz,ligo/raven/tests/data/injection_study/grb/glg_healpix_all_bn180130744_v00.fit,0.00015818153074201232,nan,False,1.0262538429038471e-06,0.00026919648220381185,0.0038122854894027114,False,False
S19006,E900,95326016.0933421,GRB,ligo/raven/tests/data/injection_study/gw/596648/bayestar.fits.gz,ligo/raven/tests/data/injection_study/grb/glg_healpix_all_bn181010247_v00.fit,0.00026941811523840405,nan,False,1.7479371631715333e-06,1.8877814641783192e-05,0.09259213507175446,False,False
S13847,E906,5040114.987750999,GRB,ligo/raven/tests/data/injection_study/gw/599060/bayestar.fits.gz,ligo/raven/tests/data/injection_study/grb/glg_healpix_all_bn180201706_v00.fit,0.00020221884635144788,nan,False,1.3119601713440588e-06,3.3628407035669117e-06,0.3901344984769821,False,False
S33719,E919,126464148.80097005,GRB,ligo/raven/tests/data/injection_study/gw/678128/bayestar.fits.gz,ligo/raven/tests/data/injection_study/grb/glg_healpix_all_bn190217188_v00.fit,0.00016037063262437195,nan,False,1.0404563494085015e-06,4.591829791146813e-06,0.22658861428499222,False,False
S30071,E926,44638420.76788888,GRB,ligo/raven/tests/data/injection_study/gw/710471/bayestar.fits.gz,ligo/raven/tests/data/injection_study/grb/glg_healpix_all_bn190323179_v00.fit,1.898860091634477e-05,nan,False,1.231946901155549e-07,1.1380441696596554e-08,10.82512378692627,False,True
S19203,E929,130875148.0172395,GRB,ligo/raven/tests/data/injection_study/gw/623525/bayestar.fits.gz,ligo/raven/tests/data/injection_study/grb/glg_healpix_all_bn181228120_v00.fit,0.00020338147636214635,nan,False,1.3195031095793743e-06,2.806396133962817e-06,0.4701770693063736,False,False
S31706,E936,134453158.37941805,GRB,ligo/raven/tests/data/injection_study/gw/727980/bayestar.fits.gz,ligo/raven/tests/data/injection_study/grb/glg_healpix_all_bn190324947_v00.fit,4.544535296327895e-05,nan,False,2.9484142618870094e-07,0.028760513460635198,1.025160509016132e-05,False,False
S7842,E942,109365259.59298682,GRB,ligo/raven/tests/data/injection_study/gw/571425/bayestar.fits.gz,ligo/raven/tests/data/injection_study/grb/glg_healpix_all_bn180125891_v00.fit,0.00011806495130334204,nan,False,7.659845584939048e-07,2.023793128617913e-07,3.7848955392837524,False,False
S14350,E946,122497384.67825003,GRB,ligo/raven/tests/data/injection_study/gw/730133/bayestar.fits.gz,ligo/raven/tests/data/injection_study/grb/glg_healpix_all_bn180724807_v00.fit,2.7800292298047418e-05,nan,False,1.803633880067384e-07,0.015525843852178313,1.1616978099482367e-05,False,False
S1582,E948,20079622.677812226,GRB,ligo/raven/tests/data/injection_study/gw/930975/bayestar.fits.gz,ligo/raven/tests/data/injection_study/grb/glg_healpix_all_bn180703876_v00.fit,0.00022336964930763339,nan,False,1.449182846535445e-06,1.0320415049896372,1.404190470566391e-06,False,False
S18311,E951,128284988.69704746,GRB,ligo/raven/tests/data/injection_study/gw/723006/bayestar.fits.gz,ligo/raven/tests/data/injection_study/grb/glg_healpix_all_bn190411407_v00.fit,0.00019451784644610072,nan,False,1.2619974436476474e-06,0.00023930674147642334,0.005273555754683912,False,False
S18126,E954,157320421.57008108,GRB,ligo/raven/tests/data/injection_study/gw/563035/bayestar.fits.gz,ligo/raven/tests/data/injection_study/grb/glg_healpix_all_bn190109217_v00.fit,0.00011835151184110579,nan,False,7.678437126677525e-07,0.0021358090017521737,0.0003595095404307358,False,False
S41624,E966,70861418.16539744,GRB,ligo/raven/tests/data/injection_study/gw/546168/bayestar.fits.gz,ligo/raven/tests/data/injection_study/grb/glg_healpix_all_bn181029892_v00.fit,0.00020131346119414876,nan,False,1.3060861922984158e-06,6.406810739731229e-07,2.0385902523994446,False,False
S6183,E975,104814531.62516698,GRB,ligo/raven/tests/data/injection_study/gw/774405/bayestar.fits.gz,ligo/raven/tests/data/injection_study/grb/glg_healpix_all_bn181119606_v00.fit,0.00017851011864326662,nan,False,1.15814213198923e-06,0.09889304382012963,1.1711057595675811e-05,False,False
S12658,E978,26913268.465843067,GRB,ligo/raven/tests/data/injection_study/gw/678128/bayestar.fits.gz,ligo/raven/tests/data/injection_study/grb/glg_healpix_all_bn181128751_v00.fit,7.1495921794426e-05,nan,False,4.638529172735782e-07,8.768578192620666e-05,0.005289944470860064,False,False
S31410,E979,141075292.49674124,GRB,ligo/raven/tests/data/injection_study/gw/738648/bayestar.fits.gz,ligo/raven/tests/data/injection_study/grb/glg_healpix_all_bn180718763_v00.fit,0.00022348242725710876,nan,False,1.4499145299595528e-06,1.502200232236772,9.65193919455487e-07,False,False
S37792,E985,138557193.88490576,GRB,ligo/raven/tests/data/injection_study/gw/523314/bayestar.fits.gz,ligo/raven/tests/data/injection_study/grb/glg_healpix_all_bn180206203_v00.fit,7.924103822366293e-05,nan,False,5.141018651877675e-07,7.461867198560619e-07,0.688972145318985,False,False
S25462,E994,58583269.920475245,GRB,ligo/raven/tests/data/injection_study/gw/729472/bayestar.fits.gz,ligo/raven/tests/data/injection_study/grb/glg_healpix_all_bn181026540_v00.fit,2.3432713555922888e-05,nan,False,1.5202730826806898e-07,4.215153621422659e-06,0.036066848784685135,False,False
S18963,E1006,150778638.39331272,GRB,ligo/raven/tests/data/injection_study/gw/793184/bayestar.fits.gz,ligo/raven/tests/data/injection_study/grb/glg_healpix_all_bn180201780_v00.fit,0.000209241008908316,nan,False,1.357518722179143e-06,0.0001931884628392886,0.007026914041489363,False,False
S27150,E1007,30945181.322066378,GRB,ligo/raven/tests/data/injection_study/gw/435585/bayestar.fits.gz,ligo/raven/tests/data/injection_study/grb/glg_healpix_all_bn180206203_v00.fit,0.000168920692906925,nan,False,1.0959276309220212e-06,8.833814122242106e-06,0.12406052649021149,False,False
S38036,E1007,30945377.08260148,GRB,ligo/raven/tests/data/injection_study/gw/906534/bayestar.fits.gz,ligo/raven/tests/data/injection_study/grb/glg_healpix_all_bn180206203_v00.fit,0.00018406800407595028,nan,False,1.1942007113755527e-06,5.279679293851101e-06,0.22618811577558517,False,False
S1946,E1011,21566137.275124308,GRB,ligo/raven/tests/data/injection_study/gw/662892/bayestar.fits.gz,ligo/raven/tests/data/injection_study/grb/glg_healpix_all_bn181026540_v00.fit,0.00025673443980586333,nan,False,1.665647716396488e-06,0.31585263096554406,5.273496412883105e-06,False,False
S1590,E1012,92840442.66247793,GRB,ligo/raven/tests/data/injection_study/gw/618507/bayestar.fits.gz,ligo/raven/tests/data/injection_study/grb/glg_healpix_all_bn190406465_v00.fit,3.645568111549353e-05,nan,False,2.3651802245782523e-07,0.00010900413843469195,0.0021698077325709164,False,False
S28574,E1018,90226799.93666506,GRB,ligo/raven/tests/data/injection_study/gw/503473/bayestar.fits.gz,ligo/raven/tests/data/injection_study/grb/glg_healpix_all_bn180113418_v00.fit,0.00011268732458511085,nan,False,7.310954658204491e-07,0.0025738259279574323,0.0002840500819729641,False,False
S37786,E1019,134542911.3700257,GRB,ligo/raven/tests/data/injection_study/gw/790138/bayestar.fits.gz,ligo/raven/tests/data/injection_study/grb/glg_healpix_all_bn181119606_v00.fit,9.697770161771943e-05,nan,False,6.291742057009575e-07,0.001843508234109766,0.0003412917794776149,False,False
S19034,E1023,69894701.13696116,GRB,ligo/raven/tests/data/injection_study/gw/713495/bayestar.fits.gz,ligo/raven/tests/data/injection_study/grb/glg_healpix_all_bn180113011_v00.fit,0.00021838378468289746,nan,False,1.4168354371550236e-06,0.11265470772851834,1.2576797416841146e-05,False,False
S43777,E1028,108782098.30820408,GRB,ligo/raven/tests/data/injection_study/gw/585579/bayestar.fits.gz,ligo/raven/tests/data/injection_study/grb/glg_healpix_all_bn190114873_v00.fit,4.175239847741217e-05,nan,False,2.70882189512891e-07,0.0060176913470721925,4.501430430536857e-05,False,False
S4186,E1031,114324991.97329497,GRB,ligo/raven/tests/data/injection_study/gw/608589/bayestar.fits.gz,ligo/raven/tests/data/injection_study/grb/glg_healpix_all_bn190422957_v00.fit,7.28454105302793e-05,nan,False,4.726081619258988e-07,0.006159644374936237,7.672653373447247e-05,False,False
S4630,E1031,114324850.2054446,GRB,ligo/raven/tests/data/injection_study/gw/542834/bayestar.fits.gz,ligo/raven/tests/data/injection_study/grb/glg_healpix_all_bn190422957_v00.fit,0.00020033788995732713,nan,False,1.2997568583608934e-06,3.1729977913469973,4.096305588063842e-07,False,False
S39497,E1034,146733842.27700925,GRB,ligo/raven/tests/data/injection_study/gw/999034/bayestar.fits.gz,ligo/raven/tests/data/injection_study/grb/glg_healpix_all_bn180126095_v00.fit,1.0666440200663922e-05,nan,False,6.92019807539269e-08,0.01924290191205235,3.5962341371487128e-06,False,False
S40393,E1036,153730187.96370712,GRB,ligo/raven/tests/data/injection_study/gw/501899/bayestar.fits.gz,ligo/raven/tests/data/injection_study/grb/glg_healpix_all_bn180210517_v00.fit,0.0001042120692004073,nan,False,6.761095052766151e-07,9.346918797419126e-08,7.233501434326172,False,False
S12991,E1039,12513060.284192085,GRB,ligo/raven/tests/data/injection_study/gw/747442/bayestar.fits.gz,ligo/raven/tests/data/injection_study/grb/glg_healpix_all_bn180402406_v00.fit,9.595744882971384e-05,nan,False,6.225549857483338e-07,1.7663975700691462e-05,0.03524432983249426,False,False
S14600,E1039,12512658.755423192,GRB,ligo/raven/tests/data/injection_study/gw/799969/bayestar.fits.gz,ligo/raven/tests/data/injection_study/grb/glg_healpix_all_bn180402406_v00.fit,0.0001078541700649682,nan,False,6.997388126361141e-07,0.0007129996565643492,0.000981401331955567,False,False
S17996,E1045,108601039.73644432,GRB,ligo/raven/tests/data/injection_study/gw/682043/bayestar.fits.gz,ligo/raven/tests/data/injection_study/grb/glg_healpix_all_bn180914522_v00.fit,1.8028069619528595e-05,nan,False,1.169629326533343e-07,2.833975422091954e-07,0.4127168208360672,False,False
S33023,E1047,107565048.06332244,GRB,ligo/raven/tests/data/injection_study/gw/517497/bayestar.fits.gz,ligo/raven/tests/data/injection_study/grb/glg_healpix_all_bn190202069_v00.fit,0.00027565431944217596,nan,False,1.7883965549806317e-06,0.523541977910191,3.4159563711000374e-06,False,False
S26101,E1051,92832676.39506602,GRB,ligo/raven/tests/data/injection_study/gw/550744/bayestar.fits.gz,ligo/raven/tests/data/injection_study/grb/glg_healpix_all_bn180427442_v00.fit,8.436085456533805e-05,nan,False,5.47318329657159e-07,0.023530160540360782,2.3260288799065165e-05,False,False
S19807,E1057,16656044.593543183,GRB,ligo/raven/tests/data/injection_study/gw/1065681/bayestar.fits.gz,ligo/raven/tests/data/injection_study/grb/glg_healpix_all_bn190331093_v00.fit,0.00023329848236719987,nan,False,1.5135993623899384e-06,9.774653487014888e-06,0.15484941378235817,False,False
S37039,E1063,61179617.46994559,GRB,ligo/raven/tests/data/injection_study/gw/756853/bayestar.fits.gz,ligo/raven/tests/data/injection_study/grb/glg_healpix_all_bn180113011_v00.fit,0.0002463543798996461,nan,False,1.5983037204295913e-06,3.754662158125341e-07,4.256850957870483,False,False
S7363,E1067,114110301.6576213,GRB,ligo/raven/tests/data/injection_study/gw/683517/bayestar.fits.gz,ligo/raven/tests/data/injection_study/grb/glg_healpix_all_bn180914522_v00.fit,1.6867688539341322e-05,nan,False,1.094345850821041e-07,2.7739883140999512e-05,0.0039450268959626555,False,False
S37894,E1067,114109866.61821842,GRB,ligo/raven/tests/data/injection_study/gw/463715/bayestar.fits.gz,ligo/raven/tests/data/injection_study/grb/glg_healpix_all_bn180914522_v00.fit,0.00011934238989971764,nan,False,7.742723545624755e-07,0.09565039385913025,8.094816166703822e-06,False,False
S23597,E1072,100612528.51102524,GRB,ligo/raven/tests/data/injection_study/gw/529406/bayestar.fits.gz,ligo/raven/tests/data/injection_study/grb/glg_healpix_all_bn180125891_v00.fit,0.00025129069658092607,nan,False,1.6303296715010615e-06,0.4328642980989464,3.766375925806642e-06,False,False
S23845,E1094,84883353.2925679,GRB,ligo/raven/tests/data/injection_study/gw/760158/bayestar.fits.gz,ligo/raven/tests/data/injection_study/grb/glg_healpix_all_bn180724807_v00.fit,0.00018738383882443033,nan,False,1.2157132617795043e-06,0.0988862893388099,1.2294052794459276e-05,False,False
S1874,E1099,23329213.218908347,GRB,ligo/raven/tests/data/injection_study/gw/675838/bayestar.fits.gz,ligo/raven/tests/data/injection_study/grb/glg_healpix_all_bn180112842_v00.fit,0.00011189353808380514,nan,False,7.259455191510189e-07,0.00013027802557684352,0.005572279100306332,False,False
S20525,E1101,34101215.82621151,GRB,ligo/raven/tests/data/injection_study/gw/435585/bayestar.fits.gz,ligo/raven/tests/data/injection_study/grb/glg_healpix_all_bn190512611_v00.fit,3.280753211515324e-05,nan,False,2.1284947586124918e-07,0.023864432764849546,8.919108950067312e-06,False,False
S11667,E1102,8338857.573314218,GRB,ligo/raven/tests/data/injection_study/gw/842939/bayestar.fits.gz,ligo/raven/tests/data/injection_study/grb/glg_healpix_all_bn190512611_v00.fit,9.421215419380414e-05,nan,False,6.112318222999851e-07,1.1907709461059282e-05,0.05133076384663582,False,False
S5516,E1105,53747370.68034096,GRB,ligo/raven/tests/data/injection_study/gw/527365/bayestar.fits.gz,ligo/raven/tests/data/injection_study/grb/glg_healpix_all_bn180718763_v00.fit,7.622640454011496e-05,nan,False,4.945434541129985e-07,0.17393082262899393,2.8433341867639683e-06,False,False
S34111,E1113,129863091.13342074,GRB,ligo/raven/tests/data/injection_study/gw/596369/bayestar.fits.gz,ligo/raven/tests/data/injection_study/grb/glg_healpix_all_bn180720598_v00.fit,3.554927117406274e-05,nan,False,2.3063739479367189e-07,0.037222660964942346,6.196155482030008e-06,False,False
S42539,E1137,122978932.37369412,GRB,ligo/raven/tests/data/injection_study/gw/849470/bayestar.fits.gz,ligo/raven/tests/data/injection_study/grb/glg_healpix_all_bn180402406_v00.fit,1.456054981834706e-05,nan,False,9.446627640898683e-08,1.4641927911717348e-06,0.06451764889061451,False,False
S31019,E1142,96933272.91055232,GRB,ligo/raven/tests/data/injection_study/gw/314183/bayestar.fits.gz,ligo/raven/tests/data/injection_study/grb/glg_healpix_all_bn180605458_v00.fit,0.00019012606328582525,nan,False,1.2335043299175498e-06,7.420600419510469e-07,1.6622702479362488,False,False
S42332,E1144,152494181.80046803,GRB,ligo/raven/tests/data/injection_study/gw/889269/bayestar.fits.gz,ligo/raven/tests/data/injection_study/grb/glg_healpix_all_bn180630467_v00.fit,0.00010685174306238091,nan,False,6.932352432319614e-07,0.36448035868356965,1.9019824435417831e-06,False,False
S43532,E1149,6901817.284458679,GRB,ligo/raven/tests/data/injection_study/gw/788580/bayestar.fits.gz,ligo/raven/tests/data/injection_study/grb/glg_healpix_all_bn180130049_v00.fit,0.00020297291542703568,nan,False,1.3168524383679446e-06,2.6801940711501654e-06,0.49132727086544037,False,False
S10395,E1153,79333819.28655368,GRB,ligo/raven/tests/data/injection_study/gw/661718/bayestar.fits.gz,ligo/raven/tests/data/injection_study/grb/glg_healpix_all_bn180131528_v00.fit,9.315344320138265e-05,nan,False,6.043630923072962e-07,6.609082702365806e-06,0.09144432283937931,False,False
S36182,E1153,79333958.85083982,GRB,ligo/raven/tests/data/injection_study/gw/501703/bayestar.fits.gz,ligo/raven/tests/data/injection_study/grb/glg_healpix_all_bn180131528_v00.fit,9.194347401515861e-05,nan,False,5.965130258593815e-07,1.2304854423133855e-06,0.48477861285209656,False,False
S42311,E1162,135162552.8251554,GRB,ligo/raven/tests/data/injection_study/gw/786784/bayestar.fits.gz,ligo/raven/tests/data/injection_study/grb/glg_healpix_all_bn190511302_v00.fit,0.00015413765925053707,nan,False,1.0000179186535987e-06,0.09046301816911613,1.1054439028157503e-05,False,False
S18101,E1165,9312582.704455528,GRB,ligo/raven/tests/data/injection_study/gw/546168/bayestar.fits.gz,ligo/raven/tests/data/injection_study/grb/glg_healpix_all_bn190601325_v00.fit,0.00018497821456366702,nan,False,1.2001059963129843e-06,0.005120302629665447,0.00023438184871338308,False,False
S21822,E1173,106426559.17585638,GRB,ligo/raven/tests/data/injection_study/gw/629206/bayestar.fits.gz,ligo/raven/tests/data/injection_study/grb/glg_healpix_all_bn190323879_v00.fit,0.00016634795558384682,nan,False,1.079236165412705e-06,0.00012888892693983366,0.008373381569981575,False,False
S39961,E1175,51788053.49584015,GRB,ligo/raven/tests/data/injection_study/gw/840764/bayestar.fits.gz,ligo/raven/tests/data/injection_study/grb/glg_healpix_all_bn180116678_v00.fit,0.00027661325665666553,nan,False,1.7946179703181688e-06,7.7507426743234324,2.315414207032518e-07,False,False
S7170,E1181,40840165.02001304,GRB,ligo/raven/tests/data/injection_study/gw/527365/bayestar.fits.gz,ligo/raven/tests/data/injection_study/grb/glg_healpix_all_bn180227211_v00.fit,3.6135560085318936e-05,nan,False,2.3444113373466053e-07,2.2625091559197514,1.0361997127006362e-07,False,False
S11065,E1188,133324487.93193322,GRB,ligo/raven/tests/data/injection_study/gw/588750/bayestar.fits.gz,ligo/raven/tests/data/injection_study/grb/glg_healpix_all_bn181027076_v00.fit,0.0002687218449422492,nan,False,1.7434198844236486e-06,0.07424934012104299,2.3480611162085552e-05,False,False
S2160,E1194,63942202.34290517,GRB,ligo/raven/tests/data/injection_study/gw/601103/bayestar.fits.gz,ligo/raven/tests/data/injection_study/grb/glg_healpix_all_bn190308923_v00.fit,0.00015217787935739758,nan,False,9.873032127258861e-07,0.00041805886294857345,0.0023616368416696787,False,False
S8758,E1196,65310954.420660466,GRB,ligo/raven/tests/data/injection_study/gw/718612/bayestar.fits.gz,ligo/raven/tests/data/injection_study/grb/glg_healpix_all_bn190601325_v00.fit,0.00012355689127949797,nan,False,8.016152954016136e-07,4.914440289073396e-06,0.1631142608821392,False,False
S317,E1199,151278800.71524897,GRB,ligo/raven/tests/data/injection_study/gw/870471/bayestar.fits.gz,ligo/raven/tests/data/injection_study/grb/glg_healpix_all_bn181027076_v00.fit,0.0002373172363317086,nan,False,1.5396723285599816e-06,6.302882911918187,2.44280649042139e-07,False,False
S34611,E1208,18605718.63863625,GRB,ligo/raven/tests/data/injection_study/gw/832387/bayestar.fits.gz,ligo/raven/tests/data/injection_study/grb/glg_healpix_all_bn180314030_v00.fit,7.427255324906592e-06,nan,False,4.818672119088942e-08,0.004364775688952776,1.1039907803933602e-05,False,False
S17285,E1214,59972508.82222776,GRB,ligo/raven/tests/data/injection_study/gw/504593/bayestar.fits.gz,ligo/raven/tests/data/injection_study/grb/glg_healpix_all_bn181010247_v00.fit,8.496671856816157e-05,nan,False,5.512490683360559e-07,9.719497126635113e-06,0.05671580135822296,False,False
S30287,E1220,29838144.16761899,GRB,ligo/raven/tests/data/injection_study/gw/696392/bayestar.fits.gz,ligo/raven/tests/data/injection_study/grb/glg_healpix_all_bn180812349_v00.fit,0.00022535879411803518,nan,False,1.462088066861682e-06,14.199268997826229,1.0296924912722716e-07,False,False
S28389,E1222,47747727.597816855,GRB,ligo/raven/tests/data/injection_study/gw/937033/bayestar.fits.gz,ligo/raven/tests/data/injection_study/grb/glg_healpix_all_bn181029892_v00.fit,0.00020268419265891837,nan,False,1.3149792560253267e-06,0.0002680923598540509,0.004904948640614748,False,False
S40643,E1233,94606354.6891077,GRB,ligo/raven/tests/data/injection_study/gw/618507/bayestar.fits.gz,ligo/raven/tests/data/injection_study/grb/glg_healpix_all_bn181020792_v00.fit,0.00011028013096365471,nan,False,7.154780186188405e-07,0.2641403524482565,2.708703959797276e-06,False,False
S42212,E1234,13677109.92375911,GRB,ligo/raven/tests/data/injection_study/gw/467320/bayestar.fits.gz,ligo/raven/tests/data/injection_study/grb/glg_healpix_all_bn180127049_v00.fit,5.6118372678858484e-05,nan,False,3.640860936737204e-07,0.7429465849994363,4.9005689106707e-07,False,False
S24153,E1247,21142544.479752883,GRB,ligo/raven/tests/data/injection_study/gw/622177/bayestar.fits.gz,ligo/raven/tests/data/injection_study/grb/glg_healpix_all_bn190519309_v00.fit,0.00012581305671264783,nan,False,8.162528983830462e-07,7.884608810465146e-05,0.010352484416216612,False,False
S27137,E1252,132224095.25002497,GRB,ligo/raven/tests/data/injection_study/gw/598803/bayestar.fits.gz,ligo/raven/tests/data/injection_study/grb/glg_healpix_all_bn180809485_v00.fit,0.00023875015792807372,nan,False,1.548968870880387e-06,0.009335319269555276,0.00016592564497841522,False,False
S42785,E1252,132224090.1855333,GRB,ligo/raven/tests/data/injection_study/gw/821759/bayestar.fits.gz,ligo/raven/tests/data/injection_study/grb/glg_healpix_all_bn180809485_v00.fit,0.0002168495798899614,nan,False,1.4068817873378394e-06,10.745149771987306,1.3093179873635563e-07,False,False
S20703,E1274,64577768.27848252,GRB,ligo/raven/tests/data/injection_study/gw/607450/bayestar.fits.gz,ligo/raven/tests/data/injection_study/grb/glg_healpix_all_bn190530430_v00.fit,0.00018772945743099234,nan,False,1.2179555742764155e-06,0.003351016618380411,0.0003634585300460458,False,False
S14823,E1276,125530305.49123876,GRB,ligo/raven/tests/data/injection_study/gw/536500/bayestar.fits.gz,ligo/raven/tests/data/injection_study/grb/glg_healpix_all_bn190217188_v00.fit,2.5084414366180568e-05,nan,False,1.627432515005246e-07,3.118394547739828e-05,0.005218815291300416,False,False
S12150,E1286,18611820.92870658,GRB,ligo/raven/tests/data/injection_study/gw/983950/bayestar.fits.gz,ligo/raven/tests/data/injection_study/grb/glg_healpix_all_bn180402406_v00.fit,7.336398643152393e-05,nan,False,4.759725908133497e-07,5.492802632966805e-07,0.8665386736392975,False,False
S705,E1292,23672525.976485357,GRB,ligo/raven/tests/data/injection_study/gw/697741/bayestar.fits.gz,ligo/raven/tests/data/injection_study/grb/glg_healpix_all_bn180210517_v00.fit,3.0070659449162288e-05,nan,False,1.9509312922687103e-07,8.082546613947456e-06,0.024137581698596478,False,False
S8972,E1295,46010101.92323466,GRB,ligo/raven/tests/data/injection_study/gw/388643/bayestar.fits.gz,ligo/raven/tests/data/injection_study/grb/glg_healpix_all_bn181010247_v00.fit,0.00023362744948602666,nan,False,1.515733642974412e-06,4.507035742255954e-05,0.03363038878887892,False,False
S22805,E1300,22728170.32328383,GRB,ligo/raven/tests/data/injection_study/gw/765854/bayestar.fits.gz,ligo/raven/tests/data/injection_study/grb/glg_healpix_all_bn181121307_v00.fit,0.00017744488425599616,nan,False,1.1512310793625323e-06,0.00010729464133720694,0.010729623259976506,False,False
S40002,E1311,63494370.61920035,GRB,ligo/raven/tests/data/injection_study/gw/866970/bayestar.fits.gz,ligo/raven/tests/data/injection_study/grb/glg_healpix_all_bn180728728_v00.fit,0.00013635750275524494,nan,False,8.846634025787391e-07,1.375673688309161e-05,0.06430764868855476,False,False
S35175,E1314,91047284.7086645,GRB,ligo/raven/tests/data/injection_study/gw/702927/bayestar.fits.gz,ligo/raven/tests/data/injection_study/grb/glg_healpix_all_bn180201780_v00.fit,0.00025162589376396833,nan,False,1.6325043716421843e-06,1.5991552251765568e-05,0.1020854227244854,False,False
S6903,E1319,146548929.79064906,GRB,ligo/raven/tests/data/injection_study/gw/721290/bayestar.fits.gz,ligo/raven/tests/data/injection_study/grb/glg_healpix_all_bn181228120_v00.fit,4.4423158362193304e-05,nan,False,2.8820960809566053e-07,0.004817142673696831,5.982999209663831e-05,False,False
S11588,E1320,151578654.43953317,GRB,ligo/raven/tests/data/injection_study/gw/529406/bayestar.fits.gz,ligo/raven/tests/data/injection_study/grb/glg_healpix_all_bn180126095_v00.fit,7.426811365869201e-05,nan,False,4.818384086304029e-07,0.046590792770792505,1.0341923371015582e-05,False,False
S18422,E1323,135700958.2689017,GRB,ligo/raven/tests/data/injection_study/gw/713495/bayestar.fits.gz,ligo/raven/tests/data/injection_study/grb/glg_healpix_all_bn180630467_v00.fit,0.00017043375363370836,nan,False,1.1057441017712053e-06,0.036340935091161194,3.042695789190475e-05,False,False
S39551,E1327,77245253.25926161,GRB,ligo/raven/tests/data/injection_study/gw/610602/bayestar.fits.gz,ligo/raven/tests/data/injection_study/grb/glg_healpix_all_bn180113116_v00.fit,8.147447971752119e-05,nan,False,5.285920392632177e-07,0.04305118718983339,1.2278222129680216e-05,False,False
S32971,E1342,79238088.33602847,GRB,ligo/raven/tests/data/injection_study/gw/937778/bayestar.fits.gz,ligo/raven/tests/data/injection_study/grb/glg_healpix_all_bn180511364_v00.fit,8.07103502837056e-05,nan,False,5.236345024114081e-07,0.0001051843910706095,0.0049782529240474105,False,False
S26597,E1352,62797539.817835405,GRB,ligo/raven/tests/data/injection_study/gw/469497/bayestar.fits.gz,ligo/raven/tests/data/injection_study/grb/glg_healpix_all_bn180125891_v00.fit,5.305364254556765e-05,nan,False,3.4420266567805496e-07,9.666743869641258e-07,0.356068879365921,False,False
S23380,E1365,22154888.261635374,GRB,ligo/raven/tests/data/injection_study/gw/793099/bayestar.fits.gz,ligo/raven/tests/data/injection_study/grb/glg_healpix_all_bn180724807_v00.fit,0.00012328922159880412,nan,False,7.998787017730632e-07,0.055059708294501214,1.4527478015224915e-05,False,False
S32862,E1366,15273640.639338018,GRB,ligo/raven/tests/data/injection_study/gw/823809/bayestar.fits.gz,ligo/raven/tests/data/injection_study/grb/glg_healpix_all_bn180605458_v00.fit,0.0002192516250319199,nan,False,1.4224658321134834e-06,0.19033643104468095,7.473429150195443e-06,False,False
S4495,E1369,125446488.85390235,GRB,ligo/raven/tests/data/injection_study/gw/890025/bayestar.fits.gz,ligo/raven/tests/data/injection_study/grb/glg_healpix_all_bn180728728_v00.fit,0.000100857089052645,nan,False,6.543429864336367e-07,0.05529594056197558,1.1833472399302991e-05,False,False
S36611,E1369,125446520.90058467,GRB,ligo/raven/tests/data/injection_study/gw/844868/bayestar.fits.gz,ligo/raven/tests/data/injection_study/grb/glg_healpix_all_bn180728728_v00.fit,5.389860107754863e-05,nan,False,3.496846074475663e-07,0.036714765410050504,9.524359029455809e-06,False,False
S3234,E1377,133375609.447707,GRB,ligo/raven/tests/data/injection_study/gw/622177/bayestar.fits.gz,ligo/raven/tests/data/injection_study/grb/glg_healpix_all_bn190324947_v00.fit,0.0002285890775446246,nan,False,1.483045575394159e-06,1.4134392034047283e-06,1.0492461025714874,False,False
S10592,E1377,133375167.12856925,GRB,ligo/raven/tests/data/injection_study/gw/755340/bayestar.fits.gz,ligo/raven/tests/data/injection_study/grb/glg_healpix_all_bn190324947_v00.fit,9.658341839260238e-05,nan,False,6.266161657510923e-07,0.0004083731165485109,0.0015344207058660686,False,False
S29043,E1377,133375358.9631396,GRB,ligo/raven/tests/data/injection_study/gw/1022203/bayestar.fits.gz,ligo/raven/tests/data/injection_study/grb/glg_healpix_all_bn190324947_v00.fit,0.00022211093898410287,nan,False,1.441016556194427e-06,0.0004267677444706479,0.0033765826374292374,False,False
S21310,E1392,125015058.9178046,GRB,ligo/raven/tests/data/injection_study/gw/585579/bayestar.fits.gz,ligo/raven/tests/data/injection_study/grb/glg_healpix_all_bn180524920_v00.fit,7.630046899717703e-06,nan,False,4.950239712335877e-08,0.02117024480947969,2.3383006464428036e-06,False,False
S43524,E1393,45382005.132741,GRB,ligo/raven/tests/data/injection_study/gw/519792/bayestar.fits.gz,ligo/raven/tests/data/injection_study/grb/glg_healpix_all_bn190613449_v00.fit,0.0002465328825096286,nan,False,1.5994618138467155e-06,3.249350090267641,4.922405310026079e-07,False,False
S3637,E1396,52058944.332004935,GRB,ligo/raven/tests/data/injection_study/gw/531143/bayestar.fits.gz,ligo/raven/tests/data/injection_study/grb/glg_healpix_all_bn180630467_v00.fit,0.0002359073966707585,nan,False,1.5305255377611997e-06,9.961439042204309e-06,0.15364502370357513,False,False
S9017,E1402,32262455.591709204,GRB,ligo/raven/tests/data/injection_study/gw/315287/bayestar.fits.gz,ligo/raven/tests/data/injection_study/grb/glg_healpix_all_bn180724807_v00.fit,0.00025411114005058306,nan,False,1.6486282107543536e-06,0.0018289111090864362,0.0009014261013362557,False,False
S15189,E1432,59086673.4004511,GRB,ligo/raven/tests/data/injection_study/gw/501703/bayestar.fits.gz,ligo/raven/tests/data/injection_study/grb/glg_healpix_all_bn181208188_v00.fit,0.00023670775554491836,nan,False,1.5357181248252886e-06,3.484824907013107e-08,44.0687313079834,False,False
S10451,E1436,42706720.64252603,GRB,ligo/raven/tests/data/injection_study/gw/790138/bayestar.fits.gz,ligo/raven/tests/data/injection_study/grb/glg_healpix_all_bn181128751_v00.fit,0.0002311145149838762,nan,False,1.4994301676084814e-06,0.005933088088041107,0.00025272339553339407,False,False
S25394,E1438,80250395.06934391,GRB,ligo/raven/tests/data/injection_study/gw/637439/bayestar.fits.gz,ligo/raven/tests/data/injection_study/grb/glg_healpix_all_bn190530430_v00.fit,0.00020944550328590148,nan,False,1.3588454455953655e-06,2.1049683126930194e-05,0.06455419957637787,False,False
S29260,E1450,19181475.356928524,GRB,ligo/raven/tests/data/injection_study/gw/882953/bayestar.fits.gz,ligo/raven/tests/data/injection_study/grb/glg_healpix_all_bn181027076_v00.fit,0.00012860200350595934,nan,False,8.343470927612659e-07,1.2265666763318708e-06,0.6802297085523605,False,False
S35425,E1451,108403100.1007176,GRB,ligo/raven/tests/data/injection_study/gw/789841/bayestar.fits.gz,ligo/raven/tests/data/injection_study/grb/glg_healpix_all_bn181027076_v00.fit,5.1848168031868004e-05,nan,False,3.363817598718986e-07,1.8674282251749332,1.8013102476288623e-07,False,False
S17725,E1455,80499080.10274048,GRB,ligo/raven/tests/data/injection_study/gw/1051502/bayestar.fits.gz,ligo/raven/tests/data/injection_study/grb/glg_healpix_all_bn190320052_v00.fit,2.7511880044138767e-05,nan,False,1.7849222022548174e-07,0.0014381798639787125,0.0001241098034370225,False,False
S16787,E1456,63013485.015421055,GRB,ligo/raven/tests/data/injection_study/gw/633572/bayestar.fits.gz,ligo/raven/tests/data/injection_study/grb/glg_healpix_all_bn190324947_v00.fit,7.969598389324188e-05,nan,False,5.17053472366733e-07,1.941121948781277e-05,0.026636836118996143,False,False
S29140,E1458,103392777.24825191,GRB,ligo/raven/tests/data/injection_study/gw/691914/bayestar.fits.gz,ligo/raven/tests/data/injection_study/grb/glg_healpix_all_bn190220844_v00.fit,0.0001546624623433925,nan,False,1.0034227484607467e-06,2.6131942210737075e-05,0.0383983226493001,False,False
S472,E1459,51646828.45476745,GRB,ligo/raven/tests/data/injection_study/gw/522890/bayestar.fits.gz,ligo/raven/tests/data/injection_study/grb/glg_healpix_all_bn190109217_v00.fit,5.163242254967535e-05,nan,False,3.3498204127548126e-07,2.5265251736591e-08,13.258606910705566,False,False
S23878,E1462,24756147.731486104,GRB,ligo/raven/tests/data/injection_study/gw/866970/bayestar.fits.gz,ligo/raven/tests/data/injection_study/grb/glg_healpix_all_bn180113116_v00.fit,3.67556300783616e-05,nan,False,2.3846403836988787e-07,1.0912459731651435e-06,0.21852455288171768,False,False
S5543,E1470,51628371.79733016,GRB,ligo/raven/tests/data/injection_study/gw/822783/bayestar.fits.gz,ligo/raven/tests/data/injection_study/grb/glg_healpix_all_bn180131528_v00.fit,7.853912408731265e-06,nan,False,5.095479702011723e-08,3.3857006836978294e-06,0.015050000511109829,False,False
S20037,E1470,51628648.91729438,GRB,ligo/raven/tests/data/injection_study/gw/879636/bayestar.fits.gz,ligo/raven/tests/data/injection_study/grb/glg_healpix_all_bn180131528_v00.fit,0.00027209913715588635,nan,False,1.7653311600106021e-06,1.6497892926003484e-05,0.10700343176722527,False,False
S10640,E1472,21864462.701809943,GRB,ligo/raven/tests/data/injection_study/gw/755340/bayestar.fits.gz,ligo/raven/tests/data/injection_study/grb/glg_healpix_all_bn180210517_v00.fit,2.0896683821918166e-05,nan,False,1.3557399511556497e-07,0.017358642818589953,7.81017251938465e-06,False,False
S19294,E1472,21864436.26245662,GRB,ligo/raven/tests/data/injection_study/gw/729472/bayestar.fits.gz,ligo/raven/tests/data/injection_study/grb/glg_healpix_all_bn180210517_v00.fit,0.00023877601314554586,nan,False,1.549136614966346e-06,0.4479240151998484,3.45848081906297e-06,False,False
S37220,E1473,83760478.66109756,GRB,ligo/raven/tests/data/injection_study/gw/316923/bayestar.fits.gz,ligo/raven/tests/data/injection_study/grb/glg_healpix_all_bn180605458_v00.fit,4.327107917303477e-06,nan,False,2.807351217276419e-08,3.8231573157393346e-05,0.0007343017787206918,False,False
S19471,E1478,3747309.7761830916,GRB,ligo/raven/tests/data/injection_study/gw/718837/bayestar.fits.gz,ligo/raven/tests/data/injection_study/grb/glg_healpix_all_bn180718082_v00.fit,0.0001639896535966229,nan,False,1.063935918501682e-06,6.572932975697559e-07,1.6186623573303223,False,False
S18520,E1485,64857713.44678204,GRB,ligo/raven/tests/data/injection_study/gw/756521/bayestar.fits.gz,ligo/raven/tests/data/injection_study/grb/glg_healpix_all_bn180404091_v00.fit,0.00016042055199670346,nan,False,1.0407802174824178e-06,0.334729451097835,3.1093177312868647e-06,False,False
S43163,E1486,11112828.584608903,GRB,ligo/raven/tests/data/injection_study/gw/1051502/bayestar.fits.gz,ligo/raven/tests/data/injection_study/grb/glg_healpix_all_bn180620354_v00.fit,0.00010571043682640033,nan,False,6.858306498820874e-07,1.6373907635495795,4.188558193618519e-07,False,False
S22265,E1499,151903047.52215862,GRB,ligo/raven/tests/data/injection_study/gw/563035/bayestar.fits.gz,ligo/raven/tests/data/injection_study/grb/glg_healpix_all_bn190531840_v00.fit,0.00014373634781743324,nan,False,9.325360465324342e-07,9.90094922610348e-07,0.9418652951717377,False,False
S2439,E1507,137383007.84064522,GRB,ligo/raven/tests/data/injection_study/gw/832387/bayestar.fits.gz,ligo/raven/tests/data/injection_study/grb/glg_healpix_all_bn190114873_v00.fit,2.876614147345222e-05,nan,False,1.8662964692631675e-07,1.0819866142753779e-07,1.7248794436454773,False,False
S5992,E1512,133939663.82101627,GRB,ligo/raven/tests/data/injection_study/gw/940945/bayestar.fits.gz,ligo/raven/tests/data/injection_study/grb/glg_healpix_all_bn190531840_v00.fit,8.676028362703332e-05,nan,False,5.628854017659506e-07,0.075306036264132,7.474638550775126e-06,False,False
S34596,E1515,25626305.23107844,GRB,ligo/raven/tests/data/injection_study/gw/740841/bayestar.fits.gz,ligo/raven/tests/data/injection_study/grb/glg_healpix_all_bn180201706_v00.fit,0.00011604623059411298,nan,False,7.52887454958001e-07,1.7235676964009074e-05,0.04368191957473755,False,False
S11485,E1516,136580539.92197666,GRB,ligo/raven/tests/data/injection_study/gw/444479/bayestar.fits.gz,ligo/raven/tests/data/injection_study/grb/glg_healpix_all_bn180128881_v00.fit,0.00017864386507469092,nan,False,1.1590098552220246e-06,2.4485141897256417e-06,0.473352313041687,False,False
S1211,E1519,116887512.09389792,GRB,ligo/raven/tests/data/injection_study/gw/789049/bayestar.fits.gz,ligo/raven/tests/data/injection_study/grb/glg_healpix_all_bn181020792_v00.fit,5.468142989886121e-05,nan,False,3.5476346262389026e-07,0.0007643365548365873,0.0004641456180252135,False,False
S2681,E1528,123377139.60970439,GRB,ligo/raven/tests/data/injection_study/gw/632939/bayestar.fits.gz,ligo/raven/tests/data/injection_study/grb/glg_healpix_all_bn181121307_v00.fit,6.787159528697289e-05,nan,False,4.403389268047518e-07,8.721187552745371e-07,0.5049070715904236,False,False
S28598,E1529,80949081.15001523,GRB,ligo/raven/tests/data/injection_study/gw/672372/bayestar.fits.gz,ligo/raven/tests/data/injection_study/grb/glg_healpix_all_bn181028590_v00.fit,8.150744992513195e-05,nan,False,5.288059441489725e-07,1.09782622501374e-05,0.04816845618188381,False,False
S1634,E1530,20246479.12781954,GRB,ligo/raven/tests/data/injection_study/gw/760828/bayestar.fits.gz,ligo/raven/tests/data/injection_study/grb/glg_healpix_all_bn181226600_v00.fit,0.00026799343012515306,nan,False,1.7386940576993378e-06,0.5639062607883065,3.083303340645216e-06,False,False
