superevent_id,external_id,t_0,ext_search,gw_skymap,ext_skymap,gw_far,grb_far,grb_not_real,temporal_coinc_far,spatiotemporal_coinc_far,overlap_integral,previously_found,passes_threshold
S1198,E438,281777811.1702561,SubGRBTargeted,ligo/raven/tests/data/injection_study/gw/458781/bayestar.fits.gz,ligo/raven/tests/data/injection_study/grb/glg_healpix_all_bn181121307_v00.fit,6.710666985411076e-06,8.650691298838986e-06,False,1.5297352076302836e-07,6.5543558105777e-06,0.023339215200394392,False,False
S3624,E535,194184093.0663079,SubGRBTargeted,ligo/raven/tests/data/injection_study/gw/745746/bayestar.fits.gz,ligo/raven/tests/data/injection_study/grb/glg_healpix_all_bn181120265_v00.fit,1.0813866818340858e-06,3.7958760628187725e-05,False,1.1755631712341857e-07,0.27403133163077414,4.289885993102871e-07,False,False
S2957,E651,256747914.74926218,SubGRBTargeted,ligo/raven/tests/data/injection_study/gw/938266/bayestar.fits.gz,ligo/raven/tests/data/injection_study/grb/glg_healpix_all_bn180127049_v00.fit,1.0141582770646788e-05,8.990728911812607e-05,False,7.453250900139794e-07,6.321964484848041e-07,1.178945392370224,False,False
S2723,E775,53363291.18074775,SubGRBTargeted,ligo/raven/tests/data/injection_study/gw/510822/bayestar.fits.gz,ligo/raven/tests/data/injection_study/grb/glg_healpix_all_bn190122305_v00.fit,2.737664340124092e-06,7.467276911582606e-05,False,3.6884166380282726e-07,0.6477713713125149,5.694009956869195e-07,False,False
S2871,E992,175677303.25157928,SubGRBTargeted,ligo/raven/tests/data/injection_study/gw/673140/bayestar.fits.gz,ligo/raven/tests/data/injection_study/grb/glg_healpix_all_bn180728728_v00.fit,9.410109311744833e-06,7.156102883555347e-05,False,6.85153071774111e-07,0.07010045506230726,9.773874808161054e-06,False,False
S1698,E1229,221281138.65690646,SubGRBTargeted,ligo/raven/tests/data/injection_study/gw/463715/bayestar.fits.gz,ligo/raven/tests/data/injection_study/grb/glg_healpix_all_bn190323879_v00.fit,4.071731113606622e-06,9.772580797440226e-05,False,5.430260144482497e-07,0.01967324714897408,2.7602256523096003e-05,False,False
S1763,E1269,277890376.72868943,SubGRBTargeted,ligo/raven/tests/data/injection_study/gw/663426/bayestar.fits.gz,ligo/raven/tests/data/injection_study/grb/glg_healpix_all_bn181028590_v00.fit,8.602892930444534e-06,2.910484129531774e-05,False,4.182487326843188e-07,0.07901973511786266,5.292965511216607e-06,False,False
S899,E1332,160753974.48479325,SubGRBTargeted,ligo/raven/tests/data/injection_study/gw/663426/bayestar.fits.gz,ligo/raven/tests/data/injection_study/grb/glg_healpix_all_bn180715755_v00.fit,8.125450411903711e-06,4.566909624481275e-05,False,5.23507520933468e-07,4.817159090760305e-07,1.0867557227611542,False,False
S1424,E1373,141363068.26593488,SubGRBTargeted,ligo/raven/tests/data/injection_study/gw/698158/bayestar.fits.gz,ligo/raven/tests/data/injection_study/grb/glg_healpix_all_bn190109217_v00.fit,5.204707235990382e-06,9.809877061993023e-06,False,1.3886883649609186e-07,2.2425757695827053e-05,0.006192381028085947,False,False
S392,E1463,254410378.7843096,SubGRBTargeted,ligo/raven/tests/data/injection_study/gw/937778/bayestar.fits.gz,ligo/raven/tests/data/injection_study/grb/glg_healpix_all_bn180809485_v00.fit,1.2732818746963367e-06,9.554364387636966e-05,False,2.6116916626224097e-07,1.1113939009646596,2.349924415057103e-07,False,False
S1065,E1464,242739355.73315322,SubGRBTargeted,ligo/raven/tests/data/injection_study/gw/691914/bayestar.fits.gz,ligo/raven/tests/data/injection_study/grb/glg_healpix_all_bn180620354_v00.fit,1.0367621774302568e-05,1.1669334843069068e-05,False,2.601706743038404e-07,0.46339273172478956,5.614474645199152e-07,False,False
S1916,E1605,188267191.74730152,SubGRBTargeted,ligo/raven/tests/data/injection_study/gw/362446/bayestar.fits.gz,ligo/raven/tests/data/injection_study/grb/glg_healpix_all_bn180131528_v00.fit,1.4016206967698125e-06,6.653165474701915e-05,False,2.1655910830322103e-07,1.3494896314900566e-06,0.16047482192516327,False,False
S402,E1615,258053605.45124704,SubGRBTargeted,ligo/raven/tests/data/injection_study/gw/930567/bayestar.fits.gz,ligo/raven/tests/data/injection_study/grb/glg_healpix_all_bn180211754_v00.fit,2.9924769345217313e-06,8.002466851257618e-06,False,7.709889027107625e-08,0.0006489197573321466,0.0001188111309602391,False,False
S312,E1683,9413997.952352047,SubGRBTargeted,ligo/raven/tests/data/injection_study/gw/622177/bayestar.fits.gz,ligo/raven/tests/data/injection_study/grb/glg_healpix_all_bn190217188_v00.fit,6.119386597743637e-06,6.215985122125365e-05,False,5.304119724897098e-07,0.5725680203027474,9.263737297260377e-07,False,False
S3341,E1782,104284016.067698,SubGRBTargeted,ligo/raven/tests/data/injection_study/gw/528825/bayestar.fits.gz,ligo/raven/tests/data/injection_study/grb/glg_healpix_all_bn180201706_v00.fit,7.538034215134137e-06,7.008499789563392e-05,False,6.221385210825661e-07,4.0449722610493256e-06,0.15380538627505302,False,False
S2317,E1786,269497966.65740824,SubGRBTargeted,ligo/raven/tests/data/injection_study/gw/788778/bayestar.fits.gz,ligo/raven/tests/data/injection_study/grb/glg_healpix_all_bn180427442_v00.fit,4.0981144732775685e-06,3.406469823810129e-05,False,2.870195102877684e-07,1.0334187364787016e-07,2.7773786187171936,False,False
S646,E1897,59514714.07383855,SubGRBTargeted,ligo/raven/tests/data/injection_study/gw/653633/bayestar.fits.gz,ligo/raven/tests/data/injection_study/grb/glg_healpix_all_bn180116026_v00.fit,3.3840442666582145e-07,2.158958927874547e-05,False,2.9246395704823235e-08,0.5732087480152731,5.102224243103137e-08,False,False
S2444,E1910,302290632.6201722,SubGRBTargeted,ligo/raven/tests/data/injection_study/gw/862855/bayestar.fits.gz,ligo/raven/tests/data/injection_study/grb/glg_healpix_all_bn180128881_v00.fit,7.949999467202263e-06,8.545562120096691e-05,False,6.872714516820399e-07,9.957593847807344e-06,0.06901983171701431,False,False
S1665,E2003,182982126.5230277,SubGRBTargeted,ligo/raven/tests/data/injection_study/gw/718452/bayestar.fits.gz,ligo/raven/tests/data/injection_study/grb/glg_healpix_all_bn181007385_v00.fit,3.0489126675063445e-06,5.528342498617468e-05,False,3.2558099510342435e-07,0.0007715677728578674,0.00042197329457849264,False,False
S2451,E2015,193252736.6257392,SubGRBTargeted,ligo/raven/tests/data/injection_study/gw/782903/bayestar.fits.gz,ligo/raven/tests/data/injection_study/grb/glg_healpix_all_bn180605458_v00.fit,1.0005032969853743e-06,8.352192968779745e-05,False,2.0011019136649095e-07,7.595973717491312e-05,0.0026344244834035635,False,False
S3167,E2028,167146763.27489024,SubGRBTargeted,ligo/raven/tests/data/injection_study/gw/745718/bayestar.fits.gz,ligo/raven/tests/data/injection_study/grb/glg_healpix_all_bn180805543_v00.fit,6.2615781075333265e-06,7.152254840525624e-05,False,5.762253352813389e-07,5.694556422592846e-05,0.01011888007633388,False,False
S2970,E2371,244473037.93462914,SubGRBTargeted,ligo/raven/tests/data/injection_study/gw/678971/bayestar.fits.gz,ligo/raven/tests/data/injection_study/grb/glg_healpix_all_bn180201706_v00.fit,1.0060940404433697e-05,2.9091559375199718e-05,False,4.587561190546004e-07,3.851161149141572e-06,0.1191215068101883,False,False
S75,E2408,20632260.775723238,SubGRBTargeted,ligo/raven/tests/data/injection_study/gw/1065681/bayestar.fits.gz,ligo/raven/tests/data/injection_study/grb/glg_healpix_all_bn180116026_v00.fit,4.478990175199723e-06,3.6654406163032764e-05,False,3.1997396342684494e-07,2.164130850511944,1.4785333490863195e-07,False,False
S347,E2427,63587894.54082607,SubGRBTargeted,ligo/raven/tests/data/injection_study/gw/860933/bayestar.fits.gz,ligo/raven/tests/data/injection_study/grb/glg_healpix_all_bn180620354_v00.fit,4.250109597298634e-06,5.369807602214586e-05,False,3.951873511627289e-07,0.22328375388726476,1.7698885130812414e-06,False,False
S1893,E2631,297793761.6712782,SubGRBTargeted,ligo/raven/tests/data/injection_study/gw/597027/bayestar.fits.gz,ligo/raven/tests/data/injection_study/grb/glg_healpix_all_bn190613172_v00.fit,4.27152130296807e-06,2.1373770567106634e-05,False,2.1329799806950075e-07,0.3097904019183392,6.885235848130833e-07,False,False
S3494,E2712,175410926.71073043,SubGRBTargeted,ligo/raven/tests/data/injection_study/gw/842939/bayestar.fits.gz,ligo/raven/tests/data/injection_study/grb/glg_healpix_all_bn180720598_v00.fit,4.914553277033263e-06,8.683623181062895e-05,False,5.626807313317846e-07,0.01280278782691163,4.394985990074929e-05,False,False
S211,E2777,173832360.97412872,SubGRBTargeted,ligo/raven/tests/data/injection_study/gw/760828/bayestar.fits.gz,ligo/raven/tests/data/injection_study/grb/glg_healpix_all_bn190519309_v00.fit,3.60912314118295e-06,3.7603000181428696e-05,False,2.8155696554498644e-07,2.9272909628160174e-08,9.618345737457275,False,False
S2884,E2900,158831049.2042133,SubGRBTargeted,ligo/raven/tests/data/injection_study/gw/571722/bayestar.fits.gz,ligo/raven/tests/data/injection_study/grb/glg_healpix_all_bn180201780_v00.fit,1.0239294635438346e-05,3.192762090419651e-05,False,4.885418324087411e-07,7.091898999843823e-07,0.6888730823993683,False,False
S2044,E2996,303195339.82238185,SubGRBTargeted,ligo/raven/tests/data/injection_study/gw/533209/bayestar.fits.gz,ligo/raven/tests/data/injection_study/grb/glg_healpix_all_bn180206203_v00.fit,2.2813462151816277e-06,9.31969508901724e-05,False,3.781012440412731e-07,4.044230413745218e-06,0.09349151886999607,False,False
S568,E3029,40099408.625324674,SubGRBTargeted,ligo/raven/tests/data/injection_study/gw/787295/bayestar.fits.gz,ligo/raven/tests/data/injection_study/grb/glg_healpix_all_bn180818520_v00.fit,1.1257808388656646e-05,8.28010893521186e-05,False,7.483807446614844e-07,4.311899743010431e-06,0.1735617220401764,False,False
S2145,E3235,14554071.323562372,SubGRBTargeted,ligo/raven/tests/data/injection_study/gw/788633/bayestar.fits.gz,ligo/raven/tests/data/injection_study/grb/glg_healpix_all_bn180113011_v00.fit,2.1247093257286046e-06,9.468722838037761e-05,False,3.6511015643883295e-07,0.00123296921940463,0.0002961226855404675,False,False
S1347,E3367,144403152.49004275,SubGRBTargeted,ligo/raven/tests/data/injection_study/gw/567047/bayestar.fits.gz,ligo/raven/tests/data/injection_study/grb/glg_healpix_all_bn190324947_v00.fit,1.1372394306579133e-05,3.324537750839899e-05,False,5.287177373542747e-07,3.596184889497523e-07,1.470218449831009,False,False
S2451,E3530,193252736.6257392,SubGRBTargeted,ligo/raven/tests/data/injection_study/gw/782903/bayestar.fits.gz,ligo/raven/tests/data/injection_study/grb/glg_healpix_all_bn180818520_v00.fit,1.0005032969853743e-06,7.588106656554226e-05,False,1.8661078673663998e-07,0.1174439195067911,1.588935276686243e-06,False,False
S1253,E3595,110283516.33239815,SubGRBTargeted,ligo/raven/tests/data/injection_study/gw/927563/bayestar.fits.gz,ligo/raven/tests/data/injection_study/grb/glg_healpix_all_bn180718763_v00.fit,8.132075097847779e-07,3.237825547436679e-06,False,1.2313682296421795e-08,0.018983318558564107,6.486580446107837e-07,False,False
S2722,E3613,236987346.3609512,SubGRBTargeted,ligo/raven/tests/data/injection_study/gw/662799/bayestar.fits.gz,ligo/raven/tests/data/injection_study/grb/glg_healpix_all_bn180305393_v00.fit,5.203240290571929e-07,3.2995453763519826e-05,False,5.904488614178843e-08,0.008780044319598045,6.724896138621261e-06,False,False
S1331,E3651,201629700.86287323,SubGRBTargeted,ligo/raven/tests/data/injection_study/gw/784159/bayestar.fits.gz,ligo/raven/tests/data/injection_study/grb/glg_healpix_all_bn190411407_v00.fit,3.37003107707161e-06,4.5026758346699746e-05,False,3.0362895240553294e-07,3.808242126170311e-05,0.007972942432388663,False,False
S2338,E4485,314021919.2553759,SubGRBTargeted,ligo/raven/tests/data/injection_study/gw/503473/bayestar.fits.gz,ligo/raven/tests/data/injection_study/grb/glg_healpix_all_bn180126095_v00.fit,3.915521968625611e-06,1.1835578859498798e-05,False,1.2900817150526497e-07,0.01837029913814947,7.022649469945463e-06,False,False
S2428,E4586,276721029.8020071,SubGRBTargeted,ligo/raven/tests/data/injection_study/gw/789233/bayestar.fits.gz,ligo/raven/tests/data/injection_study/grb/glg_healpix_all_bn181208188_v00.fit,7.284402190711743e-06,6.26574870866858e-05,False,5.815471847671847e-07,0.4943988091166862,1.176271410940899e-06,False,False
S1399,E4833,131295575.40345058,SubGRBTargeted,ligo/raven/tests/data/injection_study/gw/714587/bayestar.fits.gz,ligo/raven/tests/data/injection_study/grb/glg_healpix_all_bn180524920_v00.fit,3.955206183591842e-06,1.7206031206084982e-05,False,1.7218910689844856e-07,6.241202196474995e-08,2.758909285068512,False,False
S2904,E4848,93102987.34932765,SubGRBTargeted,ligo/raven/tests/data/injection_study/gw/790258/bayestar.fits.gz,ligo/raven/tests/data/injection_study/grb/glg_healpix_all_bn190129515_v00.fit,1.0861775754916884e-05,9.805213473998706e-05,False,7.613878147538871e-07,7.838746143133658,9.713132698152549e-08,False,False
S2232,E5188,298850002.9087628,SubGRBTargeted,ligo/raven/tests/data/injection_study/gw/630824/bayestar.fits.gz,ligo/raven/tests/data/injection_study/grb/glg_healpix_all_bn180211754_v00.fit,1.102418251561149e-05,1.0346291908105542e-06,False,4.230543669556458e-08,7.3335545522609334e-06,0.005768749164417386,False,False
S2248,E5356,253054036.17535856,SubGRBTargeted,ligo/raven/tests/data/injection_study/gw/598803/bayestar.fits.gz,ligo/raven/tests/data/injection_study/grb/glg_healpix_all_bn190122305_v00.fit,4.948584795714629e-06,8.607208793365198e-05,False,5.621361173923837e-07,0.313508703102182,1.7930478861671872e-06,False,False
S1739,E5613,171234159.87728363,SubGRBTargeted,ligo/raven/tests/data/injection_study/gw/536625/bayestar.fits.gz,ligo/raven/tests/data/injection_study/grb/glg_healpix_all_bn180125891_v00.fit,3.953585512744699e-06,4.5151127049889e-06,False,6.093299231504368e-08,9.961403773102787e-05,0.0006116908189142123,False,False
S2945,E5829,196030925.1834878,SubGRBTargeted,ligo/raven/tests/data/injection_study/gw/663500/bayestar.fits.gz,ligo/raven/tests/data/injection_study/grb/glg_healpix_all_bn180130049_v00.fit,4.3237457332258516e-06,3.0017212563078436e-06,False,4.7032342187163196e-08,0.6893544556934887,6.822664566641379e-08,False,False
S596,E6304,204029289.84105772,SubGRBTargeted,ligo/raven/tests/data/injection_study/gw/749466/bayestar.fits.gz,ligo/raven/tests/data/injection_study/grb/glg_healpix_all_bn190324947_v00.fit,4.29473327700338e-06,1.566924729205437e-05,False,1.70768387877526e-07,0.029422741512450203,5.803959084005328e-06,False,False
S84,E6434,312917115.7748537,SubGRBTargeted,ligo/raven/tests/data/injection_study/gw/793184/bayestar.fits.gz,ligo/raven/tests/data/injection_study/grb/glg_healpix_all_bn181128751_v00.fit,8.442977687218648e-06,2.8521643401729657e-05,False,4.0844823682046644e-07,5.04920592313279e-05,0.008089355891570449,False,False
S3601,E6436,57100743.52066481,SubGRBTargeted,ligo/raven/tests/data/injection_study/gw/821759/bayestar.fits.gz,ligo/raven/tests/data/injection_study/grb/glg_healpix_all_bn180116026_v00.fit,7.057160060771925e-06,2.974302552039788e-05,False,3.750554629204772e-07,2.1816743652979049e-07,1.719117522239685,False,False
S176,E6796,154914577.7912389,SubGRBTargeted,ligo/raven/tests/data/injection_study/gw/597027/bayestar.fits.gz,ligo/raven/tests/data/injection_study/grb/glg_healpix_all_bn180402406_v00.fit,6.501512278508102e-07,9.57467698837878e-05,False,1.611671541640086e-07,2.4080926447485183e-07,0.6692730635404587,False,False
S1187,E6890,43731768.99312463,SubGRBTargeted,ligo/raven/tests/data/injection_study/gw/632939/bayestar.fits.gz,ligo/raven/tests/data/injection_study/grb/glg_healpix_all_bn180605458_v00.fit,5.678042121879865e-06,2.2655660967658477e-05,False,2.7142588527956883e-07,0.04917815372581734,5.519236992768128e-06,False,False
S534,E7181,306903920.34086174,SubGRBTargeted,ligo/raven/tests/data/injection_study/gw/930672/bayestar.fits.gz,ligo/raven/tests/data/injection_study/grb/glg_healpix_all_bn190530430_v00.fit,5.497337199359901e-06,9.671135559921873e-05,False,6.238664762568315e-07,1.0450814280005221e-05,0.05969548970460892,False,False
S1472,E7462,267948331.00683558,SubGRBTargeted,ligo/raven/tests/data/injection_study/gw/793790/bayestar.fits.gz,ligo/raven/tests/data/injection_study/grb/glg_healpix_all_bn190425089_v00.fit,1.028827332906443e-05,3.913428315310998e-05,False,5.4632744201644e-07,1.7248590799152e-06,0.31673743575811386,False,False
S1673,E7530,189949748.91223627,SubGRBTargeted,ligo/raven/tests/data/injection_study/gw/662244/bayestar.fits.gz,ligo/raven/tests/data/injection_study/grb/glg_healpix_all_bn180418281_v00.fit,1.1403232172902139e-05,6.228608125724173e-05,False,6.976767605464606e-07,6.613265777239293e-06,0.10549655556678772,False,False
S2408,E7638,207214996.58541262,SubGRBTargeted,ligo/raven/tests/data/injection_study/gw/498200/bayestar.fits.gz,ligo/raven/tests/data/injection_study/grb/glg_healpix_all_bn180720598_v00.fit,6.506339478571351e-06,8.184645873920271e-06,False,1.433585817814678e-07,1.755367167760331e-08,8.166871547698975,False,False
S18,E7657,153095745.80889717,SubGRBTargeted,ligo/raven/tests/data/injection_study/gw/723006/bayestar.fits.gz,ligo/raven/tests/data/injection_study/grb/glg_healpix_all_bn180818520_v00.fit,4.275658679590792e-07,3.1183865461395024e-05,False,4.8079780539750524e-08,5.5529875256645694e-05,0.0008658362785354257,False,False
S3324,E7675,226497431.6932078,SubGRBTargeted,ligo/raven/tests/data/injection_study/gw/755265/bayestar.fits.gz,ligo/raven/tests/data/injection_study/grb/glg_healpix_all_bn190202069_v00.fit,4.7393692777776497e-07,8.223115153579957e-05,False,1.1294647011292904e-07,0.023583441451601513,4.789227659784956e-06,False,False
S2476,E7975,60612725.78862115,SubGRBTargeted,ligo/raven/tests/data/injection_study/gw/784432/bayestar.fits.gz,ligo/raven/tests/data/injection_study/grb/glg_healpix_all_bn180828790_v00.fit,9.232789206588475e-06,3.169193603670908e-05,False,4.586803623595162e-07,0.0009114983969226563,0.0005032157641835511,False,False
S2225,E8002,213785995.73253888,SubGRBTargeted,ligo/raven/tests/data/injection_study/gw/571597/bayestar.fits.gz,ligo/raven/tests/data/injection_study/grb/glg_healpix_all_bn180720598_v00.fit,8.287351986587013e-06,5.3032249166365766e-05,False,5.709428306403414e-07,0.05765484678312001,9.902772490022471e-06,False,False
S682,E8041,250539126.77391827,SubGRBTargeted,ligo/raven/tests/data/injection_study/gw/679162/bayestar.fits.gz,ligo/raven/tests/data/injection_study/grb/glg_healpix_all_bn190511302_v00.fit,3.7188339666139257e-06,3.600176629730161e-05,False,2.789610440195736e-07,3.0113186713887245e-06,0.09263750351965427,False,False
S3134,E8052,221314035.19900665,SubGRBTargeted,ligo/raven/tests/data/injection_study/gw/890025/bayestar.fits.gz,ligo/raven/tests/data/injection_study/grb/glg_healpix_all_bn181231144_v00.fit,4.518554355289225e-06,6.001564286370652e-05,False,4.387085551388658e-07,9.725150413217927e-05,0.004511072183959186,False,False
S1426,E8137,304913079.5254559,SubGRBTargeted,ligo/raven/tests/data/injection_study/gw/882953/bayestar.fits.gz,ligo/raven/tests/data/injection_study/grb/glg_healpix_all_bn180130049_v00.fit,7.791955812436743e-07,8.19306668418477e-05,False,1.6422128683994935e-07,1.645147954206657e-07,0.998215913772583,False,False
S2255,E8178,274403057.77949303,SubGRBTargeted,ligo/raven/tests/data/injection_study/gw/494115/bayestar.fits.gz,ligo/raven/tests/data/injection_study/grb/glg_healpix_all_bn190122305_v00.fit,3.854674047266185e-06,1.6566393879360975e-05,False,1.6425577502347172e-07,0.6014017693242233,2.731215360540773e-07,False,False
S1343,E8333,290405346.7714561,SubGRBTargeted,ligo/raven/tests/data/injection_study/gw/542213/bayestar.fits.gz,ligo/raven/tests/data/injection_study/grb/glg_healpix_all_bn181231144_v00.fit,1.0355077032861093e-05,8.250238253706278e-05,False,7.350541487713169e-07,11.636426031564255,6.316837719566593e-08,False,False
S2324,E8513,146975840.84481752,SubGRBTargeted,ligo/raven/tests/data/injection_study/gw/740841/bayestar.fits.gz,ligo/raven/tests/data/injection_study/grb/glg_healpix_all_bn181119606_v00.fit,6.970460277591236e-06,5.04598841626701e-05,False,5.08638765190686e-07,0.07017880359125599,7.247754865602474e-06,False,False
S2106,E8562,281922679.9210905,SubGRBTargeted,ligo/raven/tests/data/injection_study/gw/503473/bayestar.fits.gz,ligo/raven/tests/data/injection_study/grb/glg_healpix_all_bn180113418_v00.fit,9.86642995383874e-06,8.51810256513971e-05,False,7.321965509501892e-07,0.0025777023046938594,0.0002840500819729641,False,False
S1409,E8684,62457853.08219907,SubGRBTargeted,ligo/raven/tests/data/injection_study/gw/694948/bayestar.fits.gz,ligo/raven/tests/data/injection_study/grb/glg_healpix_all_bn181222279_v00.fit,8.139863323861703e-07,3.279893174843732e-05,False,8.40388817207755e-08,1.6185575822778817e-05,0.005192208336666226,False,False
S1419,E8724,115423213.61787824,SubGRBTargeted,ligo/raven/tests/data/injection_study/gw/617075/bayestar.fits.gz,ligo/raven/tests/data/injection_study/grb/glg_healpix_all_bn180816088_v00.fit,6.391144190322327e-06,1.5473110711480165e-06,False,3.761071270929099e-08,3.423805608205646e-07,0.10985060781240463,False,False
S3021,E9180,106276070.4360959,SubGRBTargeted,ligo/raven/tests/data/injection_study/gw/904727/bayestar.fits.gz,ligo/raven/tests/data/injection_study/grb/glg_healpix_all_bn180227211_v00.fit,2.3125312912446926e-06,4.3350266531792605e-05,False,2.280206421719801e-07,0.00232500978037398,9.807298192754388e-05,False,False
S3585,E9201,149392695.5220821,SubGRBTargeted,ligo/raven/tests/data/injection_study/gw/787794/bayestar.fits.gz,ligo/raven/tests/data/injection_study/grb/glg_healpix_all_bn190512611_v00.fit,5.780727242170629e-06,2.306863770550617e-05,False,2.782042932024127e-07,1.6756737510927562e-08,16.6025333404541,False,False
S472,E9208,197016225.65700915,SubGRBTargeted,ligo/raven/tests/data/injection_study/gw/738648/bayestar.fits.gz,ligo/raven/tests/data/injection_study/grb/glg_healpix_all_bn180524920_v00.fit,5.4812985830835615e-06,2.5059490496097736e-05,False,2.838770557877906e-07,8.604262235936192e-08,3.2992608547210693,False,False
S3437,E9347,210961714.62182784,SubGRBTargeted,ligo/raven/tests/data/injection_study/gw/622212/bayestar.fits.gz,ligo/raven/tests/data/injection_study/grb/glg_healpix_all_bn190422284_v00.fit,6.620690858509992e-06,2.814524993269263e-06,False,6.307835507736573e-08,7.083220899996486e-06,0.008905320893973112,False,False
S1390,E9435,106689035.0115295,SubGRBTargeted,ligo/raven/tests/data/injection_study/gw/937033/bayestar.fits.gz,ligo/raven/tests/data/injection_study/grb/glg_healpix_all_bn180113418_v00.fit,8.426474483748108e-08,6.489325724312625e-05,False,2.293527765818169e-08,1.5509309652765082e-05,0.0014788071275688708,False,False
S1359,E9438,173973910.02712536,SubGRBTargeted,ligo/raven/tests/data/injection_study/gw/577859/bayestar.fits.gz,ligo/raven/tests/data/injection_study/grb/glg_healpix_all_bn190601325_v00.fit,5.000063489250354e-06,4.6550192965611785e-05,False,4.000134429436335e-07,0.0021889093618515047,0.0001827455489546992,False,False
S1434,E9490,58583612.38293602,SubGRBTargeted,ligo/raven/tests/data/injection_study/gw/842939/bayestar.fits.gz,ligo/raven/tests/data/injection_study/grb/glg_healpix_all_bn180128881_v00.fit,1.114520657814896e-05,3.752952144033321e-05,False,5.570360389144563e-07,1.9114423846151032e-07,2.914218306541443,False,False
S1015,E9543,278365266.81744987,SubGRBTargeted,ligo/raven/tests/data/injection_study/gw/521216/bayestar.fits.gz,ligo/raven/tests/data/injection_study/grb/glg_healpix_all_bn190217188_v00.fit,1.560050151588466e-06,4.418835950861478e-05,False,1.7383609345351456e-07,0.00015820852819426967,0.0010987782734446228,False,False
S216,E9554,128675900.98110828,SubGRBTargeted,ligo/raven/tests/data/injection_study/gw/523314/bayestar.fits.gz,ligo/raven/tests/data/injection_study/grb/glg_healpix_all_bn180127049_v00.fit,2.74249771589797e-06,8.160170828443819e-05,False,3.9041143360280664e-07,6.95754740826648e-05,0.005611337022855878,False,False
S1590,E9560,275834269.255445,SubGRBTargeted,ligo/raven/tests/data/injection_study/gw/496407/bayestar.fits.gz,ligo/raven/tests/data/injection_study/grb/glg_healpix_all_bn190519309_v00.fit,9.628523277397441e-06,3.5430070649623614e-05,False,5.002080707603714e-07,0.08179617689698603,6.115298901931965e-06,False,False
S1599,E9632,280370552.52688354,SubGRBTargeted,ligo/raven/tests/data/injection_study/gw/288830/bayestar.fits.gz,ligo/raven/tests/data/injection_study/grb/glg_healpix_all_bn180404091_v00.fit,8.005273563642585e-06,4.818474540783475e-05,False,5.343178192387773e-07,0.02796550276428032,1.9106319086859003e-05,False,False
S1337,E9655,268037397.70195508,SubGRBTargeted,ligo/raven/tests/data/injection_study/gw/718452/bayestar.fits.gz,ligo/raven/tests/data/injection_study/grb/glg_healpix_all_bn180314030_v00.fit,3.0732791000822167e-06,7.802328603912866e-05,False,4.073896509194154e-07,5.948225205757608e-05,0.00684892782010138,False,False
S2949,E9749,33496270.720607802,SubGRBTargeted,ligo/raven/tests/data/injection_study/gw/788848/bayestar.fits.gz,ligo/raven/tests/data/injection_study/grb/glg_healpix_all_bn180402406_v00.fit,1.1475938804734277e-05,8.044118872757602e-05,False,7.47063274466498e-07,1.1746708620026754e-05,0.0635976679623127,False,False
S2726,E9794,144091628.5561651,SubGRBTargeted,ligo/raven/tests/data/injection_study/gw/755340/bayestar.fits.gz,ligo/raven/tests/data/injection_study/grb/glg_healpix_all_bn180816088_v00.fit,9.776960264718108e-06,4.0350973174623885e-05,False,5.406180917512124e-07,1.7506060425464903e-06,0.30881767719984055,False,False
S704,E9833,174864270.2376333,SubGRBTargeted,ligo/raven/tests/data/injection_study/gw/518343/bayestar.fits.gz,ligo/raven/tests/data/injection_study/grb/glg_healpix_all_bn180816088_v00.fit,1.0437550262553257e-05,8.869147921917953e-07,False,3.561096695046647e-08,0.012584269660091019,2.8298000529503042e-06,False,False
S2348,E9846,240954735.41695473,SubGRBTargeted,ligo/raven/tests/data/injection_study/gw/833111/bayestar.fits.gz,ligo/raven/tests/data/injection_study/grb/glg_healpix_all_bn180720933_v00.fit,5.6750516103849135e-06,2.6670122588621837e-05,False,3.0310933516741245e-07,0.13372407187064772,2.2666774270874157e-06,False,False
S1090,E9960,82085466.47397172,SubGRBTargeted,ligo/raven/tests/data/injection_study/gw/630582/bayestar.fits.gz,ligo/raven/tests/data/injection_study/grb/glg_healpix_all_bn180914522_v00.fit,8.427895033530757e-06,1.0074847290884926e-06,False,3.314754894705961e-08,0.0048105710663488245,6.890564236528007e-06,False,False
S481,E9986,239807944.2196592,SubGRBTargeted,ligo/raven/tests/data/injection_study/gw/938266/bayestar.fits.gz,ligo/raven/tests/data/injection_study/grb/glg_healpix_all_bn180703949_v00.fit,3.981836781615101e-06,7.625641160425718e-05,False,4.6856036567969413e-07,0.04674465103621004,1.0023828508565202e-05,False,False
S1170,E10134,306741924.6362548,SubGRBTargeted,ligo/raven/tests/data/injection_study/gw/629206/bayestar.fits.gz,ligo/raven/tests/data/injection_study/grb/glg_healpix_all_bn190515190_v00.fit,7.183050125070847e-07,7.509014278908762e-05,False,1.4474875305074815e-07,5.731778461351421e-07,0.25253724306821823,False,False
S2477,E10204,117446313.14909337,SubGRBTargeted,ligo/raven/tests/data/injection_study/gw/509072/bayestar.fits.gz,ligo/raven/tests/data/injection_study/grb/glg_healpix_all_bn180805543_v00.fit,1.144474989485983e-05,8.052034515313328e-05,False,7.46823091685027e-07,6.865352025380467e-05,0.010878147091716528,False,False
S3602,E10280,195385359.31553948,SubGRBTargeted,ligo/raven/tests/data/injection_study/gw/469497/bayestar.fits.gz,ligo/raven/tests/data/injection_study/grb/glg_healpix_all_bn180112842_v00.fit,1.0608631345062458e-05,5.924023138200322e-05,False,6.680766992556985e-07,3.5154458671583484,1.9004038875891638e-07,False,False
S3500,E10298,146028894.80719435,SubGRBTargeted,ligo/raven/tests/data/injection_study/gw/773425/bayestar.fits.gz,ligo/raven/tests/data/injection_study/grb/glg_healpix_all_bn190129515_v00.fit,6.316310516586169e-07,8.823929812191662e-05,False,1.4836578871125253e-07,1.1630694596470605,1.2756399669910934e-07,False,False
S3496,E10340,53045265.60653933,SubGRBTargeted,ligo/raven/tests/data/injection_study/gw/784506/bayestar.fits.gz,ligo/raven/tests/data/injection_study/grb/glg_healpix_all_bn190411407_v00.fit,1.0235042545227195e-06,5.654761458100522e-06,False,2.4058295083376035e-08,4.068586512423498e-06,0.005913182627409697,False,False
S2240,E10427,10384717.233273758,SubGRBTargeted,ligo/raven/tests/data/injection_study/gw/929850/bayestar.fits.gz,ligo/raven/tests/data/injection_study/grb/glg_healpix_all_bn180227211_v00.fit,1.1389817591648193e-05,4.3763638476977466e-05,False,6.061240582074864e-07,9.23249556398959e-06,0.06565116159617901,False,False
S1832,E10504,203434359.40934408,SubGRBTargeted,ligo/raven/tests/data/injection_study/gw/684072/bayestar.fits.gz,ligo/raven/tests/data/injection_study/grb/glg_healpix_all_bn180816088_v00.fit,1.089003948898705e-05,4.023629502184534e-05,False,5.700966024433973e-07,0.00036086739520491015,0.001579795265570283,False,False
S71,E10514,278876183.0219972,SubGRBTargeted,ligo/raven/tests/data/injection_study/gw/927457/bayestar.fits.gz,ligo/raven/tests/data/injection_study/grb/glg_healpix_all_bn180208764_v00.fit,3.562193709816499e-06,6.576322416670267e-05,False,4.0160600290932027e-07,2.062790251480333,1.946906635907908e-07,False,False
S3285,E10745,269423431.1443649,SubGRBTargeted,ligo/raven/tests/data/injection_study/gw/1051502/bayestar.fits.gz,ligo/raven/tests/data/injection_study/grb/glg_healpix_all_bn180113116_v00.fit,1.6496858500431815e-06,4.7120834345786914e-05,False,1.8986054428751456e-07,0.00010481754067859452,0.0018113432452082634,False,False
S284,E11289,114959519.59380074,SubGRBTargeted,ligo/raven/tests/data/injection_study/gw/756853/bayestar.fits.gz,ligo/raven/tests/data/injection_study/grb/glg_healpix_all_bn180128215_v00.fit,9.004103755599837e-06,3.5975374160383225e-05,False,4.860376763643316e-07,3.7766352602964103e-06,0.12869595363736153,False,False
S1411,E11804,208700201.3008013,SubGRBTargeted,ligo/raven/tests/data/injection_study/gw/612854/bayestar.fits.gz,ligo/raven/tests/data/injection_study/grb/glg_healpix_all_bn180718082_v00.fit,9.011093097478344e-06,4.1621236702499425e-05,False,5.264747118681917e-07,6.63150416713182e-06,0.07938993908464909,False,False
S513,E11905,36604016.573269814,SubGRBTargeted,ligo/raven/tests/data/injection_study/gw/598665/bayestar.fits.gz,ligo/raven/tests/data/injection_study/grb/glg_healpix_all_bn180404091_v00.fit,6.196504937334606e-07,7.129551204627448e-05,False,1.2437802410427755e-07,0.02006220133030655,6.1996199747227365e-06,False,False
S2315,E11975,205053435.98012972,SubGRBTargeted,ligo/raven/tests/data/injection_study/gw/563661/bayestar.fits.gz,ligo/raven/tests/data/injection_study/grb/glg_healpix_all_bn180906759_v00.fit,2.278878163280646e-06,7.926659946397233e-05,False,3.406685429728568e-07,0.00015404964054399262,0.002211420563980937,False,False
S903,E12097,186487984.3912812,SubGRBTargeted,ligo/raven/tests/data/injection_study/gw/791175/bayestar.fits.gz,ligo/raven/tests/data/injection_study/grb/glg_healpix_all_bn180127049_v00.fit,2.1988646957646223e-06,3.775627898113728e-05,False,1.9916705541745523e-07,3.8929395242387925,5.116109669245361e-08,False,False
S293,E12106,87413895.42624725,SubGRBTargeted,ligo/raven/tests/data/injection_study/gw/688958/bayestar.fits.gz,ligo/raven/tests/data/injection_study/grb/glg_healpix_all_bn180418281_v00.fit,4.5161443051890475e-06,8.029561315019148e-05,False,5.170954789281424e-07,6.999651964886851e-07,0.7387445569038391,False,False
S3395,E12195,194029911.81771085,SubGRBTargeted,ligo/raven/tests/data/injection_study/gw/528825/bayestar.fits.gz,ligo/raven/tests/data/injection_study/grb/glg_healpix_all_bn180914522_v00.fit,1.971345622556064e-06,1.562432373150937e-05,False,9.404818383355701e-08,0.0007098021092847158,0.00013249916082713753,False,False
S2009,E12402,105481630.95755601,SubGRBTargeted,ligo/raven/tests/data/injection_study/gw/791175/bayestar.fits.gz,ligo/raven/tests/data/injection_study/grb/glg_healpix_all_bn180314030_v00.fit,5.515769727068132e-06,1.003421453110679e-05,False,1.4758758920446563e-07,0.02955085399019247,4.994359528609493e-06,False,False
S1112,E12624,58218871.357679814,SubGRBTargeted,ligo/raven/tests/data/injection_study/gw/694948/bayestar.fits.gz,ligo/raven/tests/data/injection_study/grb/glg_healpix_all_bn180630467_v00.fit,1.1114599676561814e-05,8.550326337798287e-06,False,2.1950901540950852e-07,1.3329232463080091e-08,16.468241214752197,False,True
S1823,E12678,2503780.7791308924,SubGRBTargeted,ligo/raven/tests/data/injection_study/gw/755340/bayestar.fits.gz,ligo/raven/tests/data/injection_study/grb/glg_healpix_all_bn180418281_v00.fit,8.760111805544694e-06,7.326309430589112e-05,False,6.733585850755255e-07,3.1524453935197008e-06,0.2135988101363182,False,False
S66,E12787,187214884.70466417,SubGRBTargeted,ligo/raven/tests/data/injection_study/gw/571425/bayestar.fits.gz,ligo/raven/tests/data/injection_study/grb/glg_healpix_all_bn190601325_v00.fit,6.611498118354782e-06,3.655965148699407e-05,False,4.093863583380915e-07,0.0008366183994754854,0.000489334634039551,False,False
S1768,E12890,171775722.63453242,SubGRBTargeted,ligo/raven/tests/data/injection_study/gw/599060/bayestar.fits.gz,ligo/raven/tests/data/injection_study/grb/glg_healpix_all_bn181208188_v00.fit,9.640583094727024e-06,1.2664651914092107e-05,False,2.618237911243553e-07,0.0011021220943537512,0.0002375633266638033,False,False
S2040,E12891,31975472.497485634,SubGRBTargeted,ligo/raven/tests/data/injection_study/gw/756521/bayestar.fits.gz,ligo/raven/tests/data/injection_study/grb/glg_healpix_all_bn180528371_v00.fit,2.8475672477879388e-06,8.99330839923288e-06,False,8.13152577496978e-08,0.03326179828120333,2.444704193749203e-06,False,False
S111,E13099,43340489.968798935,SubGRBTargeted,ligo/raven/tests/data/injection_study/gw/854809/bayestar.fits.gz,ligo/raven/tests/data/injection_study/grb/glg_healpix_all_bn190114873_v00.fit,5.765784815832598e-06,1.9726349863527393e-06,False,4.220737249027927e-08,1.692035392351398e-07,0.24944733828306198,False,False
S2335,E13105,116544677.71702501,SubGRBTargeted,ligo/raven/tests/data/injection_study/gw/899313/bayestar.fits.gz,ligo/raven/tests/data/injection_study/grb/glg_healpix_all_bn190512611_v00.fit,7.17079595611377e-06,8.946879827231104e-05,False,6.732688896838909e-07,7.071113414175163e-07,0.9521398544311523,False,False
S3560,E13110,81775313.14258884,SubGRBTargeted,ligo/raven/tests/data/injection_study/gw/519792/bayestar.fits.gz,ligo/raven/tests/data/injection_study/grb/glg_healpix_all_bn181028590_v00.fit,3.982865988796325e-06,5.5973555469669136e-05,False,3.8948055515271185e-07,0.04939928771773069,7.88433544585132e-06,False,False
S331,E13132,108980697.26465821,SubGRBTargeted,ligo/raven/tests/data/injection_study/gw/906534/bayestar.fits.gz,ligo/raven/tests/data/injection_study/grb/glg_healpix_all_bn181231144_v00.fit,5.402585824391433e-06,1.128805314361635e-05,False,1.5871798647502953e-07,5.865445600510742,2.7059834373233116e-08,False,False
S634,E13143,183679978.26147693,SubGRBTargeted,ligo/raven/tests/data/injection_study/gw/623032/bayestar.fits.gz,ligo/raven/tests/data/injection_study/grb/glg_healpix_all_bn180511364_v00.fit,2.70844377028753e-06,3.1957371860741946e-05,False,2.0526337006384447e-07,1.6511067245140947,1.243186567023713e-07,False,False
S2081,E13149,218442568.5291313,SubGRBTargeted,ligo/raven/tests/data/injection_study/gw/749836/bayestar.fits.gz,ligo/raven/tests/data/injection_study/grb/glg_healpix_all_bn181027076_v00.fit,5.848140098076007e-06,2.7175568780560323e-05,False,3.1315316328497545e-07,3.093084477203931e-05,0.010124300373718143,False,False
S2700,E13194,69707974.64818344,SubGRBTargeted,ligo/raven/tests/data/injection_study/gw/687478/bayestar.fits.gz,ligo/raven/tests/data/injection_study/grb/glg_healpix_all_bn180410336_v00.fit,1.1116922781189966e-05,5.507126802633674e-05,False,6.61393819677656e-07,1.679942454201443e-05,0.03937002830207348,False,False
S162,E13504,143330086.75423908,SubGRBTargeted,ligo/raven/tests/data/injection_study/gw/675838/bayestar.fits.gz,ligo/raven/tests/data/injection_study/grb/glg_healpix_all_bn190107050_v00.fit,1.021939569599286e-05,7.014758691858452e-05,False,6.997846759908088e-07,3.632957135983812e-07,1.9262123107910156,False,False
S2555,E13544,143163325.47468352,SubGRBTargeted,ligo/raven/tests/data/injection_study/gw/663426/bayestar.fits.gz,ligo/raven/tests/data/injection_study/grb/glg_healpix_all_bn180208764_v00.fit,9.246946771945998e-08,6.547061367381975e-05,False,2.4985723994829308e-08,8.608132760663913e-10,29.025718688964844,False,True
S1764,E14002,95866011.24410865,SubGRBTargeted,ligo/raven/tests/data/injection_study/gw/696392/bayestar.fits.gz,ligo/raven/tests/data/injection_study/grb/glg_healpix_all_bn180124392_v00.fit,4.096867851620637e-06,7.719263303604202e-05,False,4.795241079533859e-07,1.1478376168360112,4.177630188451076e-07,False,False
S1521,E14017,200846666.08766752,SubGRBTargeted,ligo/raven/tests/data/injection_study/gw/571597/bayestar.fits.gz,ligo/raven/tests/data/injection_study/grb/glg_healpix_all_bn190510120_v00.fit,4.049457429145103e-06,1.530378154319708e-05,False,1.6063072671727932e-07,0.01886198398849216,8.516109801348648e-06,False,False
S510,E14076,213539680.1523596,SubGRBTargeted,ligo/raven/tests/data/injection_study/gw/518038/bayestar.fits.gz,ligo/raven/tests/data/injection_study/grb/glg_healpix_all_bn180812349_v00.fit,6.40167164200947e-06,2.7623076274239125e-05,False,3.359772503465949e-07,9.1550862077417,3.669842563169823e-08,False,False
S1213,E14176,299406315.7404264,SubGRBTargeted,ligo/raven/tests/data/injection_study/gw/724472/bayestar.fits.gz,ligo/raven/tests/data/injection_study/grb/glg_healpix_all_bn180201706_v00.fit,7.782931273951156e-06,6.310768764103299e-05,False,6.020315116758118e-07,5.729244425327861e-07,1.0508043766021729,False,False
S1939,E14374,74002300.11075436,SubGRBTargeted,ligo/raven/tests/data/injection_study/gw/630582/bayestar.fits.gz,ligo/raven/tests/data/injection_study/grb/glg_healpix_all_bn190114873_v00.fit,8.13059613188957e-06,4.753257008481149e-06,False,1.122169150511166e-07,0.011988508849764783,9.360373041999992e-06,False,False
S591,E14506,287649628.78084236,SubGRBTargeted,ligo/raven/tests/data/injection_study/gw/923662/bayestar.fits.gz,ligo/raven/tests/data/injection_study/grb/glg_healpix_all_bn180528465_v00.fit,7.329741808399191e-06,7.926632586280867e-05,False,6.477364338918261e-07,0.01222296330892672,5.299340409692377e-05,False,False
S56,E14537,223790166.71131498,SubGRBTargeted,ligo/raven/tests/data/injection_study/gw/622522/bayestar.fits.gz,ligo/raven/tests/data/injection_study/grb/glg_healpix_all_bn181120265_v00.fit,9.20212422889324e-06,9.864179728974741e-05,False,7.446754782203582e-07,2.2384613736371795,3.3267291854599534e-07,False,False
S3394,E14653,84548902.6116572,SubGRBTargeted,ligo/raven/tests/data/injection_study/gw/596094/bayestar.fits.gz,ligo/raven/tests/data/injection_study/grb/glg_healpix_all_bn180720933_v00.fit,4.238907163587115e-06,1.1826132646688336e-05,False,1.3695240074562496e-07,0.0004003711203910522,0.00034206363488920033,False,False
S1633,E14800,55915401.57632548,SubGRBTargeted,ligo/raven/tests/data/injection_study/gw/799969/bayestar.fits.gz,ligo/raven/tests/data/injection_study/grb/glg_healpix_all_bn190411407_v00.fit,5.045770048070793e-07,5.664094657319612e-05,False,8.867768686331924e-08,1.8595468505849463e-05,0.00476877938490361,False,False
S2558,E14801,301383802.6533158,SubGRBTargeted,ligo/raven/tests/data/injection_study/gw/588762/bayestar.fits.gz,ligo/raven/tests/data/injection_study/grb/glg_healpix_all_bn190324947_v00.fit,4.045373945010876e-06,5.461689433226502e-06,False,7.230847119613481e-08,2.297809491260974e-06,0.03146843612194061,False,False
S2045,E14968,308448384.4423243,SubGRBTargeted,ligo/raven/tests/data/injection_study/gw/663500/bayestar.fits.gz,ligo/raven/tests/data/injection_study/grb/glg_healpix_all_bn190613172_v00.fit,7.291734121762395e-06,5.0819225846961015e-05,False,5.231156121162407e-07,0.8128052242729017,6.435928270320801e-07,False,False
S144,E15039,64261815.535004064,SubGRBTargeted,ligo/raven/tests/data/injection_study/gw/673526/bayestar.fits.gz,ligo/raven/tests/data/injection_study/grb/glg_healpix_all_bn190220844_v00.fit,9.143817043560077e-06,8.676970114216826e-05,False,7.213789211767599e-07,0.0005883199700889507,0.0012261676602065563,False,False
S1581,E15173,28752596.656525094,SubGRBTargeted,ligo/raven/tests/data/injection_study/gw/536500/bayestar.fits.gz,ligo/raven/tests/data/injection_study/grb/glg_healpix_all_bn180206203_v00.fit,5.3418817347301244e-08,1.5142285975618342e-05,False,4.4129304870709285e-09,4.773109392803185e-07,0.009245399851351976,False,False
S1148,E15754,87233672.6823137,SubGRBTargeted,ligo/raven/tests/data/injection_study/gw/896113/bayestar.fits.gz,ligo/raven/tests/data/injection_study/grb/glg_healpix_all_bn180715755_v00.fit,7.344371196596685e-06,3.49883491671166e-05,False,4.2484228598784277e-07,9.35926810445716e-08,4.539268255233765,False,False
S244,E15904,92138511.36524835,SubGRBTargeted,ligo/raven/tests/data/injection_study/gw/468530/bayestar.fits.gz,ligo/raven/tests/data/injection_study/grb/glg_healpix_all_bn190613449_v00.fit,9.928722754151043e-07,9.852830297081215e-05,False,2.2408939432831578e-07,0.002225922033325293,0.00010067261609947309,False,False
S3564,E15984,176780829.68639496,SubGRBTargeted,ligo/raven/tests/data/injection_study/gw/719648/bayestar.fits.gz,ligo/raven/tests/data/injection_study/grb/glg_healpix_all_bn181027076_v00.fit,3.818131594685484e-06,7.26650996775107e-05,False,4.4465767583317157e-07,2.3513240548876533e-08,18.910948276519775,False,False
S461,E16010,129910881.38615099,SubGRBTargeted,ligo/raven/tests/data/injection_study/gw/712195/bayestar.fits.gz,ligo/raven/tests/data/injection_study/grb/glg_healpix_all_bn180113418_v00.fit,1.0428031216804631e-05,4.7169855209122425e-06,False,1.3499681566916015e-07,0.015826997551369824,8.52952780405758e-06,False,False
S2881,E16115,54771553.24497354,SubGRBTargeted,ligo/raven/tests/data/injection_study/gw/536500/bayestar.fits.gz,ligo/raven/tests/data/injection_study/grb/glg_healpix_all_bn180127879_v00.fit,3.138963210753705e-06,4.44024778223353e-05,False,2.8670768192493606e-07,2.3873577482218864,1.2009414263047802e-07,False,False
S1981,E16162,100987731.81050666,SubGRBTargeted,ligo/raven/tests/data/injection_study/gw/742798/bayestar.fits.gz,ligo/raven/tests/data/injection_study/grb/glg_healpix_all_bn180201706_v00.fit,6.604070236206132e-06,4.331740842276052e-05,False,4.527019763794965e-07,4.136685852689544e-05,0.010943590896204114,False,False
S1491,E16504,43773633.63953624,SubGRBTargeted,ligo/raven/tests/data/injection_study/gw/700110/bayestar.fits.gz,ligo/raven/tests/data/injection_study/grb/glg_healpix_all_bn190411407_v00.fit,3.832869102167311e-06,7.263648133431445e-05,False,4.455627014054363e-07,2.761047916869037e-06,0.16137449070811272,False,False
S583,E16625,266935663.9298246,SubGRBTargeted,ligo/raven/tests/data/injection_study/gw/745746/bayestar.fits.gz,ligo/raven/tests/data/injection_study/grb/glg_healpix_all_bn181007385_v00.fit,9.543529949618097e-06,2.181938862758731e-05,False,3.7317233342269527e-07,8.134349012706529e-05,0.004587611532770097,False,False
S1917,E16657,310783168.5582067,SubGRBTargeted,ligo/raven/tests/data/injection_study/gw/707788/bayestar.fits.gz,ligo/raven/tests/data/injection_study/grb/glg_healpix_all_bn180402406_v00.fit,8.902214351171172e-06,2.7224088627178424e-05,False,4.100479798249285e-07,3.541395598994332e-08,11.57871150970459,False,False
S2044,E16736,303195339.82238185,SubGRBTargeted,ligo/raven/tests/data/injection_study/gw/533209/bayestar.fits.gz,ligo/raven/tests/data/injection_study/grb/glg_healpix_all_bn180427442_v00.fit,2.2813462151816277e-06,2.607547420779788e-05,False,1.5579674236509885e-07,0.005801131689230348,2.6856267140829004e-05,False,False
S1905,E16961,57351499.37329362,SubGRBTargeted,ligo/raven/tests/data/injection_study/gw/892970/bayestar.fits.gz,ligo/raven/tests/data/injection_study/grb/glg_healpix_all_bn190510120_v00.fit,7.00414360899949e-06,6.72590643094664e-05,False,5.904025865002682e-07,4.1662946064416804e-05,0.014170927461236715,False,False
S280,E17021,31358951.941180766,SubGRBTargeted,ligo/raven/tests/data/injection_study/gw/932664/bayestar.fits.gz,ligo/raven/tests/data/injection_study/grb/glg_healpix_all_bn180124392_v00.fit,5.93057252714565e-06,9.785142983161722e-05,False,6.474238120175558e-07,0.4491426713174816,1.4414658267014602e-06,False,False
S975,E17084,155072715.61881205,SubGRBTargeted,ligo/raven/tests/data/injection_study/gw/847306/bayestar.fits.gz,ligo/raven/tests/data/injection_study/grb/glg_healpix_all_bn181007385_v00.fit,3.611447581377002e-06,4.3385000151650237e-05,False,3.102022180525481e-07,3.361657018477403e-05,0.009227658156305552,False,False
S1006,E17306,47342508.273858294,SubGRBTargeted,ligo/raven/tests/data/injection_study/gw/747442/bayestar.fits.gz,ligo/raven/tests/data/injection_study/grb/glg_healpix_all_bn181027076_v00.fit,7.836732434042908e-06,3.859014833285661e-05,False,4.674813864466496e-07,0.03542592684873186,1.3196024156059138e-05,False,False
S1051,E17353,57442265.37866656,SubGRBTargeted,ligo/raven/tests/data/injection_study/gw/669642/bayestar.fits.gz,ligo/raven/tests/data/injection_study/grb/glg_healpix_all_bn180128215_v00.fit,8.454001613132795e-06,3.227412121398761e-05,False,4.4029653580148674e-07,2.2027928886534127e-07,1.9988104104995728,False,False
S1283,E17472,82138737.55794434,SubGRBTargeted,ligo/raven/tests/data/injection_study/gw/518343/bayestar.fits.gz,ligo/raven/tests/data/injection_study/grb/glg_healpix_all_bn180515814_v00.fit,2.3620700900813524e-06,2.122347394665358e-06,False,2.1314031030497092e-08,1.52087930092563e-09,14.014281749725342,False,True
S716,E17612,113132205.20366369,SubGRBTargeted,ligo/raven/tests/data/injection_study/gw/602999/bayestar.fits.gz,ligo/raven/tests/data/injection_study/grb/glg_healpix_all_bn181128751_v00.fit,6.310636275543922e-06,3.76723953773404e-05,False,4.052534040340028e-07,2.7347017751481464e-07,1.4818924963474274,False,False
S2264,E17650,265599908.69044238,SubGRBTargeted,ligo/raven/tests/data/injection_study/gw/598665/bayestar.fits.gz,ligo/raven/tests/data/injection_study/grb/glg_healpix_all_bn190425089_v00.fit,1.0588864493352667e-05,8.45031904981e-05,False,7.425421106575027e-07,0.0017917942439594655,0.00041441259963903576,False,False
S665,E17656,11712413.965892982,SubGRBTargeted,ligo/raven/tests/data/injection_study/gw/589261/bayestar.fits.gz,ligo/raven/tests/data/injection_study/grb/glg_healpix_all_bn180113011_v00.fit,8.761963779541688e-06,7.28279195894346e-05,False,6.719204723348707e-07,0.10576911233534134,6.352709760903963e-06,False,False
S2137,E18227,37599347.25402314,SubGRBTargeted,ligo/raven/tests/data/injection_study/gw/793140/bayestar.fits.gz,ligo/raven/tests/data/injection_study/grb/glg_healpix_all_bn180805543_v00.fit,1.8839816946723794e-06,4.7102976342865866e-05,False,2.0898728989156852e-07,7.921910480845529e-07,0.2638092041015625,False,False
S3464,E18302,45103938.34449298,SubGRBTargeted,ligo/raven/tests/data/injection_study/gw/655080/bayestar.fits.gz,ligo/raven/tests/data/injection_study/grb/glg_healpix_all_bn190122305_v00.fit,1.8776974681093746e-06,5.872797212585044e-05,False,2.438853971726945e-07,0.0005283941799871732,0.0004615595826180652,False,False
S2733,E18338,153435433.03184652,SubGRBTargeted,ligo/raven/tests/data/injection_study/gw/778315/bayestar.fits.gz,ligo/raven/tests/data/injection_study/grb/glg_healpix_all_bn180124392_v00.fit,1.1155484550534376e-05,2.339210656013202e-06,False,8.253459162185747e-08,0.13062820873967768,6.318282430584077e-07,False,False
S2306,E18768,170135417.5002524,SubGRBTargeted,ligo/raven/tests/data/injection_study/gw/493048/bayestar.fits.gz,ligo/raven/tests/data/injection_study/grb/glg_healpix_all_bn181121307_v00.fit,1.1011418105644853e-05,2.3201594852997498e-05,False,4.2336444704436757e-07,0.006729082290966392,6.291562931437511e-05,False,False
S3554,E18775,252580882.34022838,SubGRBTargeted,ligo/raven/tests/data/injection_study/gw/585579/bayestar.fits.gz,ligo/raven/tests/data/injection_study/grb/glg_healpix_all_bn180119837_v00.fit,6.417559056505009e-06,6.654801988588303e-05,False,5.628877896961075e-07,2.624971618576372e-07,2.1443576216697693,False,False
S101,E18911,304773233.60286844,SubGRBTargeted,ligo/raven/tests/data/injection_study/gw/763905/bayestar.fits.gz,ligo/raven/tests/data/injection_study/grb/glg_healpix_all_bn180720598_v00.fit,6.4491490120294294e-06,8.33049971946044e-05,False,6.267180044867202e-07,0.0013083508507054382,0.0004790137172676623,False,False
S3279,E19062,33764718.31347951,SubGRBTargeted,ligo/raven/tests/data/injection_study/gw/756644/bayestar.fits.gz,ligo/raven/tests/data/injection_study/grb/glg_healpix_all_bn181010247_v00.fit,7.377395152761615e-06,2.8477977933802024e-05,False,3.7527175924776505e-07,0.00019465063177180793,0.0019279246916994452,False,False
S1769,E19239,243615114.65937173,SubGRBTargeted,ligo/raven/tests/data/injection_study/gw/785334/bayestar.fits.gz,ligo/raven/tests/data/injection_study/grb/glg_healpix_all_bn180605458_v00.fit,1.0910077917596732e-05,4.1575233892973695e-05,False,5.798013212641185e-07,0.07651843140754368,7.577276619485929e-06,False,False
S2203,E19715,166929932.1017232,SubGRBTargeted,ligo/raven/tests/data/injection_study/gw/1065681/bayestar.fits.gz,ligo/raven/tests/data/injection_study/grb/glg_healpix_all_bn180128881_v00.fit,1.7468455579901476e-06,3.2208035020324654e-07,False,3.2042558835528765e-09,1.4713297324330617e-08,0.21777959167957306,False,True
S1254,E19889,8427675.868983867,SubGRBTargeted,ligo/raven/tests/data/injection_study/gw/542413/bayestar.fits.gz,ligo/raven/tests/data/injection_study/grb/glg_healpix_all_bn180720598_v00.fit,5.725060433001507e-06,2.024093792123538e-05,False,2.52493284037861e-07,0.027059449940876286,9.33105752665142e-06,False,False
S1717,E19905,48427330.03775377,SubGRBTargeted,ligo/raven/tests/data/injection_study/gw/653497/bayestar.fits.gz,ligo/raven/tests/data/injection_study/grb/glg_healpix_all_bn181007385_v00.fit,6.939757711048787e-06,4.996688022334555e-05,False,5.047080485437405e-07,4.761889950102156e-08,10.598901987075806,False,False
S3470,E19915,97352504.99923483,SubGRBTargeted,ligo/raven/tests/data/injection_study/gw/904171/bayestar.fits.gz,ligo/raven/tests/data/injection_study/grb/glg_healpix_all_bn180130049_v00.fit,6.964859678323702e-06,5.112836398880605e-08,False,2.135569433597231e-09,0.0014495080299849602,1.4733063835592475e-06,False,False
S2486,E19992,173001424.24430028,SubGRBTargeted,ligo/raven/tests/data/injection_study/gw/288172/bayestar.fits.gz,ligo/raven/tests/data/injection_study/grb/glg_healpix_all_bn180818520_v00.fit,1.037084655521243e-06,2.832286158362557e-05,False,9.060882560233503e-08,5.335658420177321e-05,0.0016981751541607082,False,False
S2881,E20086,54771553.24497354,SubGRBTargeted,ligo/raven/tests/data/injection_study/gw/536500/bayestar.fits.gz,ligo/raven/tests/data/injection_study/grb/glg_healpix_all_bn180125891_v00.fit,3.138963210753705e-06,6.882325100016526e-05,False,3.8190696428988904e-07,0.0027630896033559336,0.00013821736501995474,False,False
S2592,E20116,308356869.7496981,SubGRBTargeted,ligo/raven/tests/data/injection_study/gw/521216/bayestar.fits.gz,ligo/raven/tests/data/injection_study/grb/glg_healpix_all_bn181027076_v00.fit,1.1555598991381122e-05,8.223468161277855e-05,False,7.508526249841182e-07,3.7453697317565533,2.004749006800921e-07,False,False
S754,E20137,69444389.54883066,SubGRBTargeted,ligo/raven/tests/data/injection_study/gw/515101/bayestar.fits.gz,ligo/raven/tests/data/injection_study/grb/glg_healpix_all_bn190422957_v00.fit,4.462974783191832e-06,5.4656100126064246e-05,False,4.1166900450939213e-07,4.787089065724311,8.599568523948165e-08,False,False
S2928,E20206,126857109.59470494,SubGRBTargeted,ligo/raven/tests/data/injection_study/gw/673854/bayestar.fits.gz,ligo/raven/tests/data/injection_study/grb/glg_healpix_all_bn180809485_v00.fit,8.946541869497701e-06,1.942589500230263e-06,False,5.96308024548978e-08,0.049340393458638575,1.2085595244570868e-06,False,False
S2314,E20252,13116052.68506609,SubGRBTargeted,ligo/raven/tests/data/injection_study/gw/717202/bayestar.fits.gz,ligo/raven/tests/data/injection_study/grb/glg_healpix_all_bn181119606_v00.fit,4.959480356234082e-06,6.06625490366782e-05,False,4.6609159284078774e-07,5.176581436274177e-07,0.900384932756424,False,False
S3594,E20290,183092359.7430432,SubGRBTargeted,ligo/raven/tests/data/injection_study/gw/717111/bayestar.fits.gz,ligo/raven/tests/data/injection_study/grb/glg_healpix_all_bn180201706_v00.fit,2.4644259919274905e-06,1.5882471883089832e-05,False,1.1332401688356407e-07,7.539175786923964e-06,0.015031353570520878,False,False
S33,E20565,299788647.9332782,SubGRBTargeted,ligo/raven/tests/data/injection_study/gw/778067/bayestar.fits.gz,ligo/raven/tests/data/injection_study/grb/glg_healpix_all_bn180812349_v00.fit,4.534098685800645e-06,1.3155383395364262e-06,False,2.467583968319657e-08,0.5727107992898649,4.3086038736817045e-08,False,False
S3149,E20577,72656767.40167743,SubGRBTargeted,ligo/raven/tests/data/injection_study/gw/498116/bayestar.fits.gz,ligo/raven/tests/data/injection_study/grb/glg_healpix_all_bn181119606_v00.fit,4.072163419044314e-06,3.258901741701219e-05,False,2.772823548126304e-07,5.4210779750071956e-05,0.005114893312565982,False,False
S2738,E21289,16646245.051868543,SubGRBTargeted,ligo/raven/tests/data/injection_study/gw/799969/bayestar.fits.gz,ligo/raven/tests/data/injection_study/grb/glg_healpix_all_bn180605458_v00.fit,1.0899303530577366e-05,9.120651996202601e-07,False,3.777340395978835e-08,0.0001658390461164827,0.0002277714738738723,False,False
S1121,E21305,120816495.66016108,SubGRBTargeted,ligo/raven/tests/data/injection_study/gw/591966/bayestar.fits.gz,ligo/raven/tests/data/injection_study/grb/glg_healpix_all_bn181222279_v00.fit,6.939574191953754e-06,6.386712237425652e-05,False,5.733058773387069e-07,0.1015841249191052,5.643656209031178e-06,False,False
S677,E21372,45846027.32410565,SubGRBTargeted,ligo/raven/tests/data/injection_study/gw/647238/bayestar.fits.gz,ligo/raven/tests/data/injection_study/grb/glg_healpix_all_bn181226600_v00.fit,8.429089134501796e-07,6.185941087242975e-05,False,1.4109480780151257e-07,6.321587413495118e-06,0.022319521754980087,False,False
S105,E21399,219424460.41896254,SubGRBTargeted,ligo/raven/tests/data/injection_study/gw/669642/bayestar.fits.gz,ligo/raven/tests/data/injection_study/grb/glg_healpix_all_bn180805543_v00.fit,6.091709318871875e-06,7.933619081294654e-05,False,5.975375272384108e-07,1.5096161888094933e-06,0.39582082629203796,False,False
S1017,E21418,181511873.40474412,SubGRBTargeted,ligo/raven/tests/data/injection_study/gw/899313/bayestar.fits.gz,ligo/raven/tests/data/injection_study/grb/glg_healpix_all_bn190109217_v00.fit,7.41908594107195e-07,8.915754170544211e-05,False,1.6860547530849787e-07,0.20774444915344478,8.116003868963162e-07,False,False
S1725,E21507,284130179.75614065,SubGRBTargeted,ligo/raven/tests/data/injection_study/gw/469692/bayestar.fits.gz,ligo/raven/tests/data/injection_study/grb/glg_healpix_all_bn180130049_v00.fit,1.2724020659978735e-06,7.900805614013041e-05,False,2.2847433773738765e-07,2.2884962610424667e-08,9.983601093292236,False,False
S1538,E21654,273280291.60546875,SubGRBTargeted,ligo/raven/tests/data/injection_study/gw/849470/bayestar.fits.gz,ligo/raven/tests/data/injection_study/grb/glg_healpix_all_bn190406465_v00.fit,3.3069488600707025e-06,3.496117890591517e-05,False,2.5208941427776357e-07,6.244134566820396e-07,0.4037219434976578,False,False
S246,E21936,93263209.30171427,SubGRBTargeted,ligo/raven/tests/data/injection_study/gw/761066/bayestar.fits.gz,ligo/raven/tests/data/injection_study/grb/glg_healpix_all_bn180715755_v00.fit,1.9969402133762304e-06,6.180522558212941e-05,False,2.6378846519779e-07,4.429174138598394e-06,0.05955703184008598,False,False
S1994,E21998,84284116.1816296,SubGRBTargeted,ligo/raven/tests/data/injection_study/gw/543915/bayestar.fits.gz,ligo/raven/tests/data/injection_study/grb/glg_healpix_all_bn180623849_v00.fit,1.0413134246031614e-05,7.428202785442491e-05,False,7.162540384872809e-07,0.04181931236389004,1.712735092951334e-05,False,False
S2963,E22249,271062193.33167595,SubGRBTargeted,ligo/raven/tests/data/injection_study/gw/542413/bayestar.fits.gz,ligo/raven/tests/data/injection_study/grb/glg_healpix_all_bn180703876_v00.fit,5.091824287620047e-07,7.325865829069077e-05,False,1.091840457381146e-07,2.9598442508069094e-07,0.3688844293355942,False,False
S2981,E22274,159681093.39514318,SubGRBTargeted,ligo/raven/tests/data/injection_study/gw/790258/bayestar.fits.gz,ligo/raven/tests/data/injection_study/grb/glg_healpix_all_bn180127879_v00.fit,2.296311580957378e-06,2.3374611914603827e-05,False,1.4421766662990622e-07,1.0289084595157776,1.401656923860628e-07,False,False
S259,E22366,57827500.02005954,SubGRBTargeted,ligo/raven/tests/data/injection_study/gw/517497/bayestar.fits.gz,ligo/raven/tests/data/injection_study/grb/glg_healpix_all_bn180806944_v00.fit,4.828456738317571e-06,3.873280940445156e-06,False,6.326322517710943e-08,3.443318692353649e-06,0.01837274758145213,False,False
S3116,E22413,77644430.60759833,SubGRBTargeted,ligo/raven/tests/data/injection_study/gw/517497/bayestar.fits.gz,ligo/raven/tests/data/injection_study/grb/glg_healpix_all_bn180805543_v00.fit,5.608119559829068e-06,8.402669990207545e-06,False,1.3066192508927037e-07,7.245230351360807e-07,0.18034198880195618,False,False
S328,E22584,101735379.89271754,SubGRBTargeted,ligo/raven/tests/data/injection_study/gw/571597/bayestar.fits.gz,ligo/raven/tests/data/injection_study/grb/glg_healpix_all_bn180113116_v00.fit,1.0616198362562451e-05,5.607893823345755e-05,False,6.541448040729019e-07,0.07802120648336484,8.384192369703669e-06,False,False
S3354,E22669,30859131.0035031,SubGRBTargeted,ligo/raven/tests/data/injection_study/gw/712195/bayestar.fits.gz,ligo/raven/tests/data/injection_study/grb/glg_healpix_all_bn190422957_v00.fit,1.0089137532935188e-05,3.290280280885005e-06,False,9.972084773761558e-08,1.0826835649895312,9.21052567548486e-08,False,False
S343,E23146,1562729.977242552,SubGRBTargeted,ligo/raven/tests/data/injection_study/gw/608145/bayestar.fits.gz,ligo/raven/tests/data/injection_study/grb/glg_healpix_all_bn180720933_v00.fit,1.029363307327158e-05,9.036552227976458e-06,False,2.1617128250873455e-07,1.2129575522303226e-07,1.7821834087371826,False,False
S3509,E23846,313142460.3527003,SubGRBTargeted,ligo/raven/tests/data/injection_study/gw/622212/bayestar.fits.gz,ligo/raven/tests/data/injection_study/grb/glg_healpix_all_bn190422957_v00.fit,5.723204842222422e-07,7.188228161467348e-05,False,1.1775813283826154e-07,1.442913196245845e-07,0.8161137700080872,False,False
S210,E23853,185443317.51563197,SubGRBTargeted,ligo/raven/tests/data/injection_study/gw/844868/bayestar.fits.gz,ligo/raven/tests/data/injection_study/grb/glg_healpix_all_bn181222279_v00.fit,9.470270885490702e-06,2.965767022636422e-05,False,4.478689898422555e-07,0.09511763802171039,4.70857980872097e-06,False,False
S2141,E23877,203101752.39030445,SubGRBTargeted,ligo/raven/tests/data/injection_study/gw/668958/bayestar.fits.gz,ligo/raven/tests/data/injection_study/grb/glg_healpix_all_bn180630467_v00.fit,2.611393124645925e-06,8.817678553804718e-05,False,3.973690325549696e-07,0.19729503809848198,2.014085282553424e-06,False,False
S3441,E23929,144782849.80516982,SubGRBTargeted,ligo/raven/tests/data/injection_study/gw/504298/bayestar.fits.gz,ligo/raven/tests/data/injection_study/grb/glg_healpix_all_bn190531840_v00.fit,6.847707735370629e-06,5.4098770534798194e-05,False,5.230346346676145e-07,1.1874860924824442e-05,0.04404553771018982,False,False
S1031,E24210,66365631.2894968,SubGRBTargeted,ligo/raven/tests/data/injection_study/gw/942101/bayestar.fits.gz,ligo/raven/tests/data/injection_study/grb/glg_healpix_all_bn180128215_v00.fit,1.091091384159154e-05,9.362304540877558e-05,False,7.584043958516897e-07,2.141752335736044e-05,0.03541046194732189,False,False
S1219,E24503,94162605.12127338,SubGRBTargeted,ligo/raven/tests/data/injection_study/gw/920459/bayestar.fits.gz,ligo/raven/tests/data/injection_study/grb/glg_healpix_all_bn180130049_v00.fit,1.928023645420757e-06,9.859191251166755e-05,False,3.52091362068402e-07,2.027199060728722e-05,0.017368366476148367,False,False
S975,E24874,155072715.61881205,SubGRBTargeted,ligo/raven/tests/data/injection_study/gw/847306/bayestar.fits.gz,ligo/raven/tests/data/injection_study/grb/glg_healpix_all_bn180119837_v00.fit,3.611447581377002e-06,7.652943459397447e-05,False,4.4365437410659054e-07,7.035657058779467e-07,0.630579873919487,False,False
S2268,E24903,119141658.17263238,SubGRBTargeted,ligo/raven/tests/data/injection_study/gw/760828/bayestar.fits.gz,ligo/raven/tests/data/injection_study/grb/glg_healpix_all_bn180703876_v00.fit,1.0242847352437987e-05,1.911864294013255e-06,False,6.564834679980229e-08,0.034977879015950585,1.8768532754620537e-06,False,False
S1973,E25119,101489380.07427959,SubGRBTargeted,ligo/raven/tests/data/injection_study/gw/751851/bayestar.fits.gz,ligo/raven/tests/data/injection_study/grb/glg_healpix_all_bn180126095_v00.fit,8.761887530865875e-06,1.5641767959738673e-05,False,2.834447819731407e-07,1.1252346611554583e-05,0.02518983744084835,False,False
S1855,E25121,18508404.557357486,SubGRBTargeted,ligo/raven/tests/data/injection_study/gw/897993/bayestar.fits.gz,ligo/raven/tests/data/injection_study/grb/glg_healpix_all_bn180515814_v00.fit,1.0121476717992804e-05,9.24725107452383e-05,False,7.48918396784234e-07,1.2631433229611825e-05,0.05929005704820156,False,False
S2407,E25265,110632740.88142647,SubGRBTargeted,ligo/raven/tests/data/injection_study/gw/891799/bayestar.fits.gz,ligo/raven/tests/data/injection_study/grb/glg_healpix_all_bn190323179_v00.fit,5.485982246574633e-06,1.2666443018587793e-05,False,1.7486197174782368e-07,3.8741200259747815e-08,4.513592004776001,False,False
S842,E25303,192694176.15886128,SubGRBTargeted,ligo/raven/tests/data/injection_study/gw/663426/bayestar.fits.gz,ligo/raven/tests/data/injection_study/grb/glg_healpix_all_bn190507712_v00.fit,1.2858962995081508e-06,8.38838868168279e-06,False,4.0405711627390477e-08,1.815128363021144e-05,0.002226052572950721,False,False
S3649,E25356,145536853.61813205,SubGRBTargeted,ligo/raven/tests/data/injection_study/gw/529097/bayestar.fits.gz,ligo/raven/tests/data/injection_study/grb/glg_healpix_all_bn190122305_v00.fit,8.095182788018958e-06,6.132603849078566e-05,False,6.050013921985567e-07,0.3317044661043431,1.8239169321532245e-06,False,False
S2748,E25578,161759977.3867589,SubGRBTargeted,ligo/raven/tests/data/injection_study/gw/573696/bayestar.fits.gz,ligo/raven/tests/data/injection_study/grb/glg_healpix_all_bn180227211_v00.fit,7.981654589881858e-06,8.393030223605509e-05,False,6.838979694001133e-07,0.0004899708130211132,0.0013957932824268937,False,False
S3063,E25992,256166612.8080481,SubGRBTargeted,ligo/raven/tests/data/injection_study/gw/700110/bayestar.fits.gz,ligo/raven/tests/data/injection_study/grb/glg_healpix_all_bn180211754_v00.fit,9.452297518790082e-06,7.58515352893228e-05,False,6.998179736186039e-07,6.8675102730749855e-06,0.10190271958708763,False,False
S917,E26439,57859432.1375685,SubGRBTargeted,ligo/raven/tests/data/injection_study/gw/569374/bayestar.fits.gz,ligo/raven/tests/data/injection_study/grb/glg_healpix_all_bn180314030_v00.fit,9.733902211566444e-06,4.9545650220053345e-05,False,5.96948612792256e-07,0.06935833934740146,8.606731626059627e-06,False,False
S1157,E26473,127502469.3675859,SubGRBTargeted,ligo/raven/tests/data/injection_study/gw/638992/bayestar.fits.gz,ligo/raven/tests/data/injection_study/grb/glg_healpix_all_bn180809485_v00.fit,7.770297738356268e-08,5.7070713890858396e-05,False,1.9213085224706246e-08,0.06094871033544944,3.152336631728758e-07,False,False
S2771,E26518,253796899.1866282,SubGRBTargeted,ligo/raven/tests/data/injection_study/gw/1043680/bayestar.fits.gz,ligo/raven/tests/data/injection_study/grb/glg_healpix_all_bn190531840_v00.fit,5.657825757769823e-06,8.645937185901734e-05,False,6.00902633018433e-07,0.0730086123787973,8.230571893363958e-06,False,False
S849,E26594,61253650.05840705,SubGRBTargeted,ligo/raven/tests/data/injection_study/gw/662892/bayestar.fits.gz,ligo/raven/tests/data/injection_study/grb/glg_healpix_all_bn190507712_v00.fit,7.24313539192665e-06,2.1518645107918567e-06,False,5.4598343760378867e-08,0.0001010377134900951,0.0005403758841566741,False,False
S2294,E26765,186079173.8698794,SubGRBTargeted,ligo/raven/tests/data/injection_study/gw/687313/bayestar.fits.gz,ligo/raven/tests/data/injection_study/grb/glg_healpix_all_bn190323179_v00.fit,1.166831498133698e-06,2.5984877030529388e-05,False,9.289453150993484e-08,0.40111766102796276,2.3158923312394109e-07,False,False
S1746,E26773,140480659.98839262,SubGRBTargeted,ligo/raven/tests/data/injection_study/gw/938266/bayestar.fits.gz,ligo/raven/tests/data/injection_study/grb/glg_healpix_all_bn181007385_v00.fit,4.038452971556835e-06,9.314701613868198e-05,False,5.273043708621843e-07,0.13013139586177058,4.052091867379204e-06,False,False
S2036,E26841,42736151.466519386,SubGRBTargeted,ligo/raven/tests/data/injection_study/gw/759737/bayestar.fits.gz,ligo/raven/tests/data/injection_study/grb/glg_healpix_all_bn180720933_v00.fit,1.9608963924164325e-06,5.3870586378560695e-05,False,2.3662243114308987e-07,6.17413133704663e-05,0.00383248133584857,False,False
S3144,E26855,258153752.9289854,SubGRBTargeted,ligo/raven/tests/data/injection_study/gw/469692/bayestar.fits.gz,ligo/raven/tests/data/injection_study/grb/glg_healpix_all_bn180410336_v00.fit,2.014723346468524e-06,9.732735286513816e-05,False,3.59183243695888e-07,5.89697513772408e-07,0.6090974360704422,False,False
S740,E26871,199635825.82991537,SubGRBTargeted,ligo/raven/tests/data/injection_study/gw/688958/bayestar.fits.gz,ligo/raven/tests/data/injection_study/grb/glg_healpix_all_bn180703949_v00.fit,9.072421268321595e-06,2.1065492865523285e-06,False,6.43753244940173e-08,0.0037393057600202087,1.7215849311469356e-05,False,False
S220,E26919,83394263.14755486,SubGRBTargeted,ligo/raven/tests/data/injection_study/gw/504593/bayestar.fits.gz,ligo/raven/tests/data/injection_study/grb/glg_healpix_all_bn181222279_v00.fit,5.629919037302754e-07,1.211826484616545e-05,False,2.7619133410198194e-08,1.7586135090037643e-08,1.5705061554908752,False,False
S34,E26953,75489598.29690595,SubGRBTargeted,ligo/raven/tests/data/injection_study/gw/647856/bayestar.fits.gz,ligo/raven/tests/data/injection_study/grb/glg_healpix_all_bn180128881_v00.fit,1.727691340315222e-06,2.0525513230290895e-05,False,1.049816372763751e-07,1.6403769995859676e-07,0.6399848163127899,False,False
S2344,E26994,246304430.9486008,SubGRBTargeted,ligo/raven/tests/data/injection_study/gw/791321/bayestar.fits.gz,ligo/raven/tests/data/injection_study/grb/glg_healpix_all_bn180113011_v00.fit,2.989770010896374e-06,5.375281177417672e-05,False,3.1548178984940315e-07,0.041809896006597624,7.545624839622178e-06,False,False
S1779,E27110,135960379.55235276,SubGRBTargeted,ligo/raven/tests/data/injection_study/gw/933874/bayestar.fits.gz,ligo/raven/tests/data/injection_study/grb/glg_healpix_all_bn190109217_v00.fit,5.123361635189977e-06,3.2787633866634246e-05,False,3.2485372072349393e-07,1.5815534620258882,2.0540166900673285e-07,False,False
S3163,E27228,84862382.28410551,SubGRBTargeted,ligo/raven/tests/data/injection_study/gw/669642/bayestar.fits.gz,ligo/raven/tests/data/injection_study/grb/glg_healpix_all_bn180623849_v00.fit,8.805923279184722e-06,1.0259851750403782e-07,False,4.863037080693859e-09,0.0003318260080290214,1.4655382528871996e-05,False,False
S1303,E27231,101970237.87576625,SubGRBTargeted,ligo/raven/tests/data/injection_study/gw/557056/bayestar.fits.gz,ligo/raven/tests/data/injection_study/grb/glg_healpix_all_bn181010247_v00.fit,8.827021029909277e-06,9.025743639509737e-05,False,7.22196327191669e-07,0.00011901086639663637,0.006068322574719787,False,False
S1866,E27442,52634497.32191032,SubGRBTargeted,ligo/raven/tests/data/injection_study/gw/316484/bayestar.fits.gz,ligo/raven/tests/data/injection_study/grb/glg_healpix_all_bn180809485_v00.fit,5.18865437807195e-06,3.0048898487780464e-05,False,3.09185631220001e-07,0.002535134468231058,0.00012196024908917025,False,False
S120,E27491,254063828.07506666,SubGRBTargeted,ligo/raven/tests/data/injection_study/gw/780521/bayestar.fits.gz,ligo/raven/tests/data/injection_study/grb/glg_healpix_all_bn190107050_v00.fit,1.079391867396285e-05,5.1116236035937794e-05,False,6.339338975766753e-07,0.008293509336254506,7.643735261808615e-05,False,False
S3434,E27497,13288824.52051199,SubGRBTargeted,ligo/raven/tests/data/injection_study/gw/521216/bayestar.fits.gz,ligo/raven/tests/data/injection_study/grb/glg_healpix_all_bn180828790_v00.fit,2.461959991444293e-06,8.381348524010516e-05,False,3.7102868076101854e-07,2.791412300169584e-06,0.13291790708899498,False,False
S3100,E27536,99254507.24924429,SubGRBTargeted,ligo/raven/tests/data/injection_study/gw/727980/bayestar.fits.gz,ligo/raven/tests/data/injection_study/grb/glg_healpix_all_bn180124392_v00.fit,4.9502866181837615e-06,5.581058965919337e-05,False,4.435564114602012e-07,1.6448064399090697e-05,0.02696708869189024,False,False
S166,E27690,144920490.5264163,SubGRBTargeted,ligo/raven/tests/data/injection_study/gw/530272/bayestar.fits.gz,ligo/raven/tests/data/injection_study/grb/glg_healpix_all_bn180620354_v00.fit,1.1544956082011306e-07,5.865443088724415e-05,False,2.7446692685401742e-08,2.217997449683143e-06,0.012374537531286478,False,False
S3545,E27877,258372222.74461254,SubGRBTargeted,ligo/raven/tests/data/injection_study/gw/609332/bayestar.fits.gz,ligo/raven/tests/data/injection_study/grb/glg_healpix_all_bn190601325_v00.fit,7.678933631447772e-06,4.2737219131056705e-05,False,4.895915284666817e-07,0.0015901363427061777,0.00030789279844611883,False,False
S2204,E28451,306031304.55647737,SubGRBTargeted,ligo/raven/tests/data/injection_study/gw/890025/bayestar.fits.gz,ligo/raven/tests/data/injection_study/grb/glg_healpix_all_bn190217188_v00.fit,4.528833164617567e-06,4.733119666245439e-05,False,3.80043119882788e-07,0.0398733715745589,9.531251180305844e-06,False,False
S2759,E28594,132594919.72841099,SubGRBTargeted,ligo/raven/tests/data/injection_study/gw/519116/bayestar.fits.gz,ligo/raven/tests/data/injection_study/grb/glg_healpix_all_bn180906759_v00.fit,9.1137673996014e-06,1.4015235783776503e-06,False,4.64221403671526e-08,0.009795772012447343,4.73899763164809e-06,False,False
S243,E28631,296252817.39113593,SubGRBTargeted,ligo/raven/tests/data/injection_study/gw/638067/bayestar.fits.gz,ligo/raven/tests/data/injection_study/grb/glg_healpix_all_bn190425089_v00.fit,5.381174000893473e-06,6.0980115212797536e-05,False,4.895651919615253e-07,0.0004201628821500392,0.0011651795357465744,False,False
S3315,E28653,11004320.56780708,SubGRBTargeted,ligo/raven/tests/data/injection_study/gw/632939/bayestar.fits.gz,ligo/raven/tests/data/injection_study/grb/glg_healpix_all_bn190531840_v00.fit,5.238940767316708e-06,1.3419687969492367e-05,False,1.7637565163162095e-07,0.022067891431523816,7.992410701262997e-06,False,False
S1230,E28892,112045060.1238616,SubGRBTargeted,ligo/raven/tests/data/injection_study/gw/936685/bayestar.fits.gz,ligo/raven/tests/data/injection_study/grb/glg_healpix_all_bn190406465_v00.fit,9.70053328121533e-06,4.791986031687975e-05,False,5.866708497885428e-07,7.96109237840793e-08,7.36922550201416,False,False
S877,E28895,220951877.76331007,SubGRBTargeted,ligo/raven/tests/data/injection_study/gw/946338/bayestar.fits.gz,ligo/raven/tests/data/injection_study/grb/glg_healpix_all_bn180511364_v00.fit,8.695409705910182e-06,3.7900278431197366e-06,False,9.915713890295638e-08,2.6529508307033296e-06,0.03737616911530495,False,False
S2676,E29083,103066389.61432555,SubGRBTargeted,ligo/raven/tests/data/injection_study/gw/892970/bayestar.fits.gz,ligo/raven/tests/data/injection_study/grb/glg_healpix_all_bn180605458_v00.fit,1.1556235641020586e-05,2.4943469457251768e-05,False,4.5470880184698855e-07,2.762442541156061e-07,1.6460389494895935,False,False
S2189,E29153,62022281.30335586,SubGRBTargeted,ligo/raven/tests/data/injection_study/gw/622522/bayestar.fits.gz,ligo/raven/tests/data/injection_study/grb/glg_healpix_all_bn180314030_v00.fit,1.5065511332961015e-06,1.0722974302439903e-05,False,5.620771405409611e-08,0.009895458778739052,5.680152412423922e-06,False,False
S869,E29364,120381804.82776694,SubGRBTargeted,ligo/raven/tests/data/injection_study/gw/610602/bayestar.fits.gz,ligo/raven/tests/data/injection_study/grb/glg_healpix_all_bn190422957_v00.fit,3.9906279490859535e-06,9.956981213710786e-05,False,5.426260943742111e-07,13.434922957149244,4.038922263305267e-08,False,False
S3301,E29367,182393439.50980282,SubGRBTargeted,ligo/raven/tests/data/injection_study/gw/493717/bayestar.fits.gz,ligo/raven/tests/data/injection_study/grb/glg_healpix_all_bn180119837_v00.fit,7.036699337736781e-06,1.127886864756027e-05,False,1.9275722532827435e-07,0.48231419053240143,3.9965074449810345e-07,False,False
S2329,E29427,141809203.4166953,SubGRBTargeted,ligo/raven/tests/data/injection_study/gw/937705/bayestar.fits.gz,ligo/raven/tests/data/injection_study/grb/glg_healpix_all_bn180524920_v00.fit,6.236554205787037e-06,9.220246636637622e-05,False,6.449978166826185e-07,0.0002591591182027049,0.0024888100451789796,False,False
S163,E29479,261362127.38742796,SubGRBTargeted,ligo/raven/tests/data/injection_study/gw/727980/bayestar.fits.gz,ligo/raven/tests/data/injection_study/grb/glg_healpix_all_bn180201780_v00.fit,7.987393041041289e-06,7.112890900550768e-05,False,6.417889231806741e-07,0.0005735001179282427,0.0011190737423021346,False,False
S1173,E29771,194285764.2640558,SubGRBTargeted,ligo/raven/tests/data/injection_study/gw/754279/bayestar.fits.gz,ligo/raven/tests/data/injection_study/grb/glg_healpix_all_bn180816088_v00.fit,1.1106934062312999e-05,4.3494122601820156e-05,False,5.974183811815799e-07,8.107513835657998e-05,0.007368700113147497,False,False
S3396,E29959,202322231.70728594,SubGRBTargeted,ligo/raven/tests/data/injection_study/gw/879636/bayestar.fits.gz,ligo/raven/tests/data/injection_study/grb/glg_healpix_all_bn180130049_v00.fit,7.372026381923544e-06,4.8996282347855115e-05,False,5.160023562244354e-07,10.421622237604998,4.951267129627013e-08,False,False
S123,E30081,40238158.083393715,SubGRBTargeted,ligo/raven/tests/data/injection_study/gw/702927/bayestar.fits.gz,ligo/raven/tests/data/injection_study/grb/glg_healpix_all_bn190122305_v00.fit,3.951676610638514e-06,9.866172389447995e-05,False,5.37310695685168e-07,0.6590400944578169,8.152928785420954e-07,False,False
S2847,E30234,266509866.31967258,SubGRBTargeted,ligo/raven/tests/data/injection_study/gw/765408/bayestar.fits.gz,ligo/raven/tests/data/injection_study/grb/glg_healpix_all_bn190530430_v00.fit,5.548451708586878e-06,4.7509951921311736e-05,False,4.313808763785893e-07,4.986537630600849e-05,0.008650909876450896,False,False
S3510,E30267,253125571.76644775,SubGRBTargeted,ligo/raven/tests/data/injection_study/gw/713466/bayestar.fits.gz,ligo/raven/tests/data/injection_study/grb/glg_healpix_all_bn180124392_v00.fit,7.863945515568654e-06,2.1955078332329693e-05,False,3.30760944527932e-07,0.025923322494818015,1.275920340049197e-05,False,False
S1821,E30355,167484696.501041,SubGRBTargeted,ligo/raven/tests/data/injection_study/gw/542213/bayestar.fits.gz,ligo/raven/tests/data/injection_study/grb/glg_healpix_all_bn190308923_v00.fit,9.271376593593015e-06,9.871437351937342e-05,False,7.458586049590506e-07,3.6786440703855106,2.0275367518252096e-07,False,False
S2899,E30490,93524172.71265784,SubGRBTargeted,ligo/raven/tests/data/injection_study/gw/569043/bayestar.fits.gz,ligo/raven/tests/data/injection_study/grb/glg_healpix_all_bn180227211_v00.fit,4.314962991164116e-06,6.0851110193780245e-05,False,4.303675445926517e-07,4.963901967104608e-05,0.008669944480061531,False,False
S788,E30532,107596825.6986435,SubGRBTargeted,ligo/raven/tests/data/injection_study/gw/704598/bayestar.fits.gz,ligo/raven/tests/data/injection_study/grb/glg_healpix_all_bn190202069_v00.fit,2.995292249955225e-06,1.901283256063866e-05,False,1.507881695882177e-07,1.2743890392997095e-06,0.11832192912697792,False,False
S704,E30781,174864270.2376333,SubGRBTargeted,ligo/raven/tests/data/injection_study/gw/518343/bayestar.fits.gz,ligo/raven/tests/data/injection_study/grb/glg_healpix_all_bn180715755_v00.fit,1.0437550262553257e-05,2.8877581478729765e-05,False,4.665860961563522e-07,8.784372553841785e-06,0.053115472197532654,False,False
S3335,E30909,309982478.22679067,SubGRBTargeted,ligo/raven/tests/data/injection_study/gw/644826/bayestar.fits.gz,ligo/raven/tests/data/injection_study/grb/glg_healpix_all_bn180314030_v00.fit,5.298304285215192e-06,1.3584217075712736e-05,False,1.7944703391116874e-07,1.1414626828767117e-05,0.01572079723700881,False,False
S1080,E30983,56812871.34516657,SubGRBTargeted,ligo/raven/tests/data/injection_study/gw/612716/bayestar.fits.gz,ligo/raven/tests/data/injection_study/grb/glg_healpix_all_bn180715755_v00.fit,4.473760384771415e-06,6.729382409434095e-05,False,4.662709262580911e-07,1.3024128425820503e-05,0.03580054733902216,False,False
S1829,E31502,287666597.5133668,SubGRBTargeted,ligo/raven/tests/data/injection_study/gw/983950/bayestar.fits.gz,ligo/raven/tests/data/injection_study/grb/glg_healpix_all_bn180206203_v00.fit,2.3271835422214037e-07,7.308179818589593e-05,False,5.8597352354745066e-08,1.489492800327665e-07,0.3934047371149063,False,False
S65,E31506,76759693.78016984,SubGRBTargeted,ligo/raven/tests/data/injection_study/gw/935093/bayestar.fits.gz,ligo/raven/tests/data/injection_study/grb/glg_healpix_all_bn180818520_v00.fit,3.4673164220575045e-06,5.498836514333755e-05,False,3.5277576975675333e-07,5.959274368282601e-08,5.919777274131775,False,False
